<?xml version="1.0" encoding="UTF-8" standalone="no"?>
<svg
   xmlns:dc="http://purl.org/dc/elements/1.1/"
   xmlns:cc="http://creativecommons.org/ns#"
   xmlns:rdf="http://www.w3.org/1999/02/22-rdf-syntax-ns#"
   xmlns:svg="http://www.w3.org/2000/svg"
   xmlns="http://www.w3.org/2000/svg"
   xmlns:xlink="http://www.w3.org/1999/xlink"
   xmlns:sodipodi="http://sodipodi.sourceforge.net/DTD/sodipodi-0.dtd"
   xmlns:inkscape="http://www.inkscape.org/namespaces/inkscape"
   width="187"
   height="173"
   viewBox="0 0 187 173"
   fill="none"
   version="1.1"
   id="svg22"
   sodipodi:docname="logo9.svg"
   inkscape:version="0.92.5 (2060ec1f9f, 2020-04-08)"
   inkscape:export-filename="/media/saad/b12eaaa3-c605-4a63-8945-f71fc99101b9/BHS/Business Items/logo9.png"
   inkscape:export-xdpi="96"
   inkscape:export-ydpi="96">
  <metadata
     id="metadata28">
    <rdf:RDF>
      <cc:Work
         rdf:about="">
        <dc:format>image/svg+xml</dc:format>
        <dc:type
           rdf:resource="http://purl.org/dc/dcmitype/StillImage" />
        <dc:title></dc:title>
      </cc:Work>
    </rdf:RDF>
  </metadata>
  <defs
     id="defs26" />
  <sodipodi:namedview
     pagecolor="#ffffff"
     bordercolor="#666666"
     borderopacity="1"
     objecttolerance="10"
     gridtolerance="10"
     guidetolerance="10"
     inkscape:pageopacity="0"
     inkscape:pageshadow="2"
     inkscape:window-width="1687"
     inkscape:window-height="849"
     id="namedview24"
     showgrid="false"
     inkscape:zoom="2.7283237"
     inkscape:cx="87.377119"
     inkscape:cy="65.785136"
     inkscape:window-x="2017"
     inkscape:window-y="100"
     inkscape:window-maximized="0"
     inkscape:current-layer="svg22" />
  <rect
     x="31.0356"
     width="159.459"
     height="141.507"
     rx="30"
     transform="rotate(12.3206 31.0356 0)"
     fill="black"
     fill-opacity="0.3"
     id="rect2" />
  <rect
     x="20"
     y="18.5671"
     width="151"
     height="134"
     rx="30"
     fill="black"
     id="rect4" />
  <path
     d="M95.4709 35.18L52.9767 60.4855C52.3711 60.8462 52 61.499 52 62.2039V108.908C52 109.625 52.3837 110.287 53.0056 110.643L95.5 134.994C96.1189 135.349 96.88 135.347 97.4972 134.989L139.503 110.645C140.12 110.287 140.5 109.628 140.5 108.915V62.1973C140.5 61.496 140.133 60.8459 139.532 60.4841L97.526 35.1851C96.8943 34.8046 96.1045 34.8027 95.4709 35.18Z"
     fill="white"
     id="path6"
     style="fill:#1930e0;fill-opacity:1" />
  <path
     inkscape:connector-curvature="0"
     d="M 95.1867,47.154981 62.54799,67.100242 c -0.46515,0.284296 -0.75018,0.798819 -0.75018,1.354406 v 36.811192 c 0,0.56512 0.29471,1.08691 0.77238,1.3675 l 32.63886,19.19293 c 0.47536,0.27981 1.05994,0.27823 1.53399,-0.004 l 32.26358,-19.18741 c 0.4739,-0.28217 0.76577,-0.80159 0.76577,-1.36356 V 68.449446 c 0,-0.552749 -0.28188,-1.065145 -0.7435,-1.350308 L 96.76516,47.159 C 96.27997,46.859098 95.67335,46.857601 95.1867,47.155 Z"
     id="path6-6"
     style="fill:#f9fafe;fill-opacity:1;stroke-width:0.77806169" />
  <path
     d="M95.1867 47.155L61.9947 66.4541C61.3789 66.8122 61 67.4708 61 68.1831V103.701C61 104.425 61.3915 105.093 62.0235 105.447L95.2157 124.018C95.8254 124.359 96.569 124.357 97.1772 124.013L129.985 105.448C130.612 105.093 131 104.429 131 103.708V68.1766C131 67.4677 130.625 66.8119 130.014 66.4526L97.2058 47.1599C96.5831 46.7937 95.8113 46.7918 95.1867 47.155Z"
     stroke="black"
     stroke-width="4"
     id="path8" />
  <image
     y="63.478813"
     x="69.89196"
     id="image1161"
     xlink:href="data:image/png;base64,iVBORw0KGgoAAAANSUhEUgAAAOwAAACQCAYAAAALM4euAAAgAElEQVR42uy9d5wc1ZX2/63YuSdL o5E0yighgSSSwASHn22Sjc3K9gtO7882BmODsc3a69drsHeBhQULAw6s9zWYjMAiGRDBSAhJmCCS BAooazSaPNM5VNW97x9VXdM9MwqEtYXdZz71mZmenu6q6vvcc+5zznmuQtWq9gGyt956a2OxWJye z+dxHAdFUVBV1f/7cccdp/w9X79SHQJV+yDYyy+/LJ966imWLVtGsVgkn89j2zaqqlYA9jOf+QxH HXUUp512mlIFbNWq9jew6667Tt522200NTURDocr/ialrPg9mUwSj8eZO3cuJ5xwwt8dcKuArdoh bZdcconcvn070WiUgYEBOjo6RgSspmmoqoqmaWiahqIoxONxPv/5z/PFL35RqQK2alX7H7bf/e53 8oknniCTyRCPx3nppZcqwt+hHlZRFEzTJBqN+p44n89z5plnctZZZ3XPnj17VBWwVava/xBYFy9e zHHHHUcikeC1116jr6+P0aNHVzxPCDGit9U0jUgkQlNTEzt27GDhwoVccMEFLFiwQKkCtmpVex9t 8+bNv/zJT35yUSqVIpFI0NnZSTKZpKmpCcuySCaT9Pf3o6oqpmmSTCYJBoMcffTRvL1lE4FAAKRK LpejtraWcePGoes648eP50tf+hKnnHLKB3bcq9XhUbVDzVasWHHRmjVraGhoIJFIUCgUMAyDXC7H 7t27aWxs5IorruDJJ5/kmWee4Ve/+hXHHHMMzz33HJFwhHAojONYCCFQVZXu7m6SySSdnZ0sWbKE DRs2rPmg3hu9OjyqdqjZli1biEajdHR0kE6nsSyLQCBAKpVCCMGSJUuYNWtWKRBm/vwjOeWUk3jp pb/wjW+cx6jRo4jH4/T19yFkLel0jnA4jGmYbN26lVtuuWXhhg0b1sycOfP4qoetWtXeo23atIkp U6aQzWZJJBIEg0EfsHfeeSczZhxGoZADJPl8DiEcpk+fyuc+93k2bd7E5EmTaWtrY9KkCeTzeaKx KIqi0N3TTSQc4fHHH2fp0qULqyFx1ar2PlhbWxuO4xAIBPziCDfEtTnxxBOQ0iYQCGHZeYLBgEcy GYRCQSZNnMYfl97Heed9nc2bNjNq1Cg69naQSqXo6Oggl8/R3NzMo48+yhNPPCGrgK1a1d6Dbdiw YU2p7DCXy/mgzWQztIxtAYQfCqOIsv8s/WzT2NjIhd++kMXXX8dbb62nrr6Ojo4O6uvr2bx5M6qq UldXx2233Vb1sFWr2nux7du3LkylE9hOkWRygFAohBCCZDLJjOkzAFAUFRCoiuIBVfigLRRzZLIZ Jk2YzoXf+g5f/epX2bxpCw0NDaTTaVKpFO3t7ei6zvbt23nggQdkFbBVq9q7tL0de8nn80ghfQ8r pSSXLTB27NiyZyqDntY3ia5r6JpOwUqQzib58Y9/zPz5R2LbNvl8Hl3X2bt3L93d3RSLRZ566qmq h61a1d6tbd26lXgsjqIqFAoFFEXxiyXmz5/PqFHN3rCVqKrh/awAEomCooBhqOiaQSgYZGzLWK7/ 5fVs27YNRVHQdR1N0+jr60PXddatW8djjz32gfGy1bTOB9BeffVVOTAwQENDA8VisXIGVlUaGhpG TZgwofuDfI2K4nrQfD5PKBRCUSEYDFZ4UwZhus/XyWYztI5v5eKLL+bmm29mzJgx6LpOLpcjGAzS 1NTEE088QRWwVXtfbeXKlXLVqlU8//zzLFq0iIGBAerr67Esq+J5lmUxb968rhtv/CXz5s1j0uQJ o8a2fJDAKzwySSCkIOfVERu6Tigc8sEsvXXrcLCq3hrXNdtxGD9+PJ///Of59a9/jW3baJpGPp8n n8/T1dXFypUrefbZZ+XJJ5+sVAFbtfdky5Ytkw8//DCXXnoppmnS3NzMkUce6XoXKZFCIqQ7eIUQ WJZFJpPh7nvu5tY/3MoZZ5zW9daGN5g1c+4HsBzPJZFKk1Klhz0IkyqGbmA7NlOmTOLjH/84zz33 HA0NDb6XHTVqFFJK1q5dW/WwVXv3tmvXLn3x4sXW3XffTSaToa6uDsdxSKVSFAoFBgYGyGQyw7pX 4vEotbW1jB81Hk3VWLp0KcseX8ZV//Ez+S8/uuyQB21/fz+NjY309fUhpWRM8xgcx8JxJGOax1aA UfFZYs+zAiiO2wQg3ftimgEURSUej7No0WdZtXoluqESDEaRUvr3dteuXVXAVu3d2apVq+QPfvAD cjnXu6RSKdLpNMlkkkwmg6IoBAIBTNMc1sC9a/cuBhIDDAwMEIlGmDhxIrlslmeeeYZzv7hIfuMb 3+SUkz/2gfK2Usph13mwpmkGQjiomsrhh88hMZBi4oSJ7Nmzh2KxyOTJUwmHw2zfvr0K2Kq9c3v8 8cflDTfcQCKRwHEcuru7SafTZDIZAAzDIBAIEAqFME3TJ2dKA9s0dfL5PO3t7QQCAWrr4jQ21hMK h9izZw9XXPFv3H3PrfJ/feGrhyhohX/sD6Tl1z18DQsooHgMsqIoGLrB7NmzAWhvbycUChGLxbBt m3g8zrp163jllVfk/PnzlSpgq3bQ9otf/ML1irkcL730UuVQVFWklKRSKbq6urAsCyllxeCdM3c2 gUAAx3FIp9Ns3boVEMTiERzHRtc1fvOb37L4+qvlJd/94SE3OEvetPwQUuzHy6plYfGIr+iSVFKi aiqf/eynefTRxwhHwvT09BAKRQiFQmzfvp2enp5DfnxU87CHiG3duvWLX/nKV2R9fT07d+5k48aN AORyORobG9E0jZ6eHmzb5pxzzmHJkiU89thjPPjggzz00ENcdtllLFiwgJdfeoXOzk4c4VAoFGhs bKStrY2B/iTRWA2RaJhg0GT58uVcceVl8oN3p1QURfOGrlo2jFVvHVv60hja7m0aJvPnL8CyLeLx OIFAAMuySCQSSCnZvHlzNSSu2sHZX/7yl9v7+/vJ5/Ns376dVCoFwPTp03nttdcoFos88MADHH30 0bS0tPheo+RdP/7xj3PWWWfR3dPJNVdfzePLljH9sOnU1MaQ0qF/oB/LsmhpaUZKwcDAAC+88AKL r79ann322Re3jp96wyEREHvetNyrlh/vwmdX/FbfUI+u6Ti2g6ZrOI6DaZoEg0EMw6h62KodLNG0 kqKVZ/uOraTSCTcXqQhefPFFzjjjVFasWMHpp5/O2LFjURQFx3awbZtCoYAQ7uCeOHEiJ514Cv/1 u99x+eWXs2HDJorFIoZhIIRNOpNkz569FAoWpmmQz+d55pkVPPro47/ctXvbaR+E+7TvtStDvO3I /ze2ZSy6oWPZFqZhYlkFbKfI5MkTWblyRRWwVTuw3Xf/vfK1119B11RSqUQF8XL8CcdxxZVXcvLJ J2MYBsVika6uLrK5rE9AqaqKFNLLU0paxozjX39yGffdfy9btmwBIBqJo2sm3d3d9Pb2oSgqoVCE QqHAY489xh//+MdHD41FrDp4lIHtwEA9OGtoaEDXdIQjMAwDRVXI5/LEa6I89fQTVcBW7cD2+OOP 0tTUxLo3XycQNDBNnbq6Gjr29nDL729h2tSpOE4Rt7hdp7GxkUgk4nvWEqHikjYl4sbh7M+ezR13 3EV7ewcb3tqKquo01DeRSmXYtOlttm7dSjQSQziSJ598mh/+8NK/+ZpWVXQURXO/oyGkQNfc9FUy mXwvwTYgmDJlEulMmu6eTvL5LLZVJF/IEo/HSST6eXntGlkFbNX2aTt3bv1id3c36UySfC5PbU0t hUKBDW9t5aeX/YgpUyaiaSaaZgDKsEKJA9mZZ3yalStXcdxxx7Bt2w5SqQxSKOSyBZLJNN3dPdi2 Qy6b4411b3DDDdcfUgPWsaW/tuzt7X1f1sjHHns0yUSWSDREJpshn8+Ty6Up5A99Dq4K2L+xdXV3 3N7b2006laZQzLFnz25qamOgwllnnVUatsPWY+8kTDxi7jyWLLmfM07/FPl8kVyuQCAQQgpJb28v iUTCDa0VhSeeWMYNN1wvt23fctHfbkgOHpZloesuN9re3v6eXz0SiTBv3jwAV12RUt2yLPPEVcBW bV8exHHJo0wmg2mahCNhOjo6aG6upb6+3vOsbopCCBvHdt6hh3KfP378eBYvXszChQu90FkSicQQ wt3eotR7WigUeeSRR7jrzrt+uXv3zqZD4R5pmgZAX19f5XL3XTDHNfEaampqiEaDPkOsaW4PrWEe +uOlCti/sRUKFgMDSXRdx9ADGHoAVdGZMX2WN1C1sgEqUFRliLeVQ46S93VzlaqmIoRAODChdRLX XbuYGTNm0d+fIBqN4zgOhYJFd3cv7e2dCCmwHZsXX3yR22+/veuvfT9qamp49dVXcRyHYrGIpmm+ Z21vbyedTg+LNt6Z59aoqakjnc5j2wJDDyAECOGg6xo7duyqArZqBzbDNFAUBSEEpmnS399PNpst QRUpHRRF9fOv79YOmz6VBx98kNNPP52XX36ZQqGAqqoUi0USiQTJZBJFUUilU/zlL3/hX/7lh3LL ls2//J+67tdee02uW7dOPvnkk/LXv/61fOWVV6ipqaGnp4fW1lZ/S0nDMGhraxsG2IOxylyuoKG+ wfXcqoYj3ImhWHR1jId68UPNqoUTh5gJKQgGg+zZs4f+/n5/DSvlvtau7wy8iYEUjY313HrLrQQC AVauXEGhUCAQCFAsFrETbkN8PB4nlU6xYsUKotHoRVu2bGbq1MMufr+uc8mSJfIvf/kL5513Hm+/ /bZ/rbNnzyYcDpNIJLBtm1zO1RSOx+Ns3ryZ3t5e6uvr3ZSMohzU9ZdPcLZj+1IzuqF70YfAtm2E kOzZs6cK2KodvCcQjiAQCNDW1kEm7WrvCiFwhETX3vvHVVMbAyAcCXLjDTdy6T9/nyeffLIMtHkS iYQP2kAgwJ/+9Ccy2cxFwHsC7PLly+Xzzz/Pww8/zPe+9z2mTZtGS0sL48ePJ5/P+2vp/v5+ampq 6Ovro1Ao+Jtb7d69m1QqRS6X873uwXnWQSJJOIL6hnp38Ou6D+aiVcRx3h8muhoS/x2boiguyTSq BZcVdZBSQVMVVq9ZTTqTQlE0HNsp8yiDhRWi4jf3EeE9LhUFgYJUVL8WwZGDR6w2zpVXXsmsWbNo a2sjk8mgayb5XJHOjm6SiTS6bmKaQR579DF+/m+Xv6tY/OFHHpTnnXee/PGPf8zTTz9NLBbj8MMP x7Zt2trbeXvbVt7eupX2jr309PdhhoIoukYgFKRhVBNoKoqmUltfR29/P6FIGM0wyORyOLakULBI JFJ0d/fS29tPKpWhULCwLAfbFgihIKT0meBoJIqqQU93n+9pC3mL6dOnsbe9swrYqu3bGhsbmTNn Dj29Pei67pFABSLRCCuffZb+vn6KxWJZGPz+5grj8Ti3334755xzDnv37iUajTJ69Gj27NlDZ2cn 6XQaTdOwLItbfn8Ld971h4M+gZXPPSO//JUvyt/85jesX7+ehoYGTNMkm83S0dFBd3c3AwP9ZNJp ilYRy7JwbBvbsrAtC2vIz5Ztk8/nMHUDFbBsC9ux/T10FEXBsixyuRzZbJZCoYDjOBVr2KEkVUmY zXGcD8R4qQL2b2yzZs5VTjnlFPbs2UM4HPYkPXPE43GefvpZNmzcgBDCa5mz97k2e9drIs2tnFq8 eDGf+MQneP3115FSMmvWLCzLYu/eveRyOaZOm8ro0aP553/+Z677xdX7fePVa5bLS753ofzOt7/j 53gbGhrI5/M+UHt7e31QWZaFFG6BRCgUJhqLEY3FiEVjxGLeEXWPu++5hz8+sJSXXlnLrl27SCaT 5PN5isWiv/WkZVnDASvcY3/h8/tV/lhdw/6d29y5c+np6XE9kGGSzgwyoa+sfYXph02nvqGeYDCI IkTFwCrpOQ0fbKXBue9BKIQEKcCGWCzG7bffzllnncXq1auZPHmy32+7fv16puYnMzAwQGtrK5f9 9DLuu/9OueifzvVf/OW1a2R3dze33Pp/Of+C85BC4bBp0+ns6iGXzZFKZcjlchXecKg5QrBt22CL mxSi8jIk/HHJfTywdCnCdhgzbiwzph3GEUccwZw5c9A0jdbWVhobG2loaPDXv+7EJivuk3BK76G4 oBYfjE7DKmAPAZs2dTotY8YRDkcJhTLk8gVsSxAIGCxfvpxzzjmHol2AousFNF1HHcYYqxXfD+Qs FAU0TQEMVA00XSMQCHDvvfdy+OGH093dzcSJE0mn04TDYQYGBnzv1TK2hcsuu4xLvnehnDBhElu2 bOFLX/oSG97aypHzZhCPx4lFa+ju7qG/r59MNkM2V8ARAtMwMQMmxWKRzr0dmKZBLpMlGA4xf/58 jj/+eI5asID58+ejKAqxWGxYCNvd3c2uXbvo7u5mxTPLuf766wmFQuRyOQDOOOMMAI455hiOPfZY gsEg0WiUYDDIqFGjaGtz87qhUMQVLZcKQoKCRjqdPbQ5jypcDg371rfOl88//zyWbTHQP0ChUKBo FQkGg1xz3TV84hOfwLYsdMMgHAqhaTqaNuiphgJX8ebicsnPoYAdaU3U09PD+vXrOfXUUxk9enRZ 7bJA0zTMgO6pXiSIx+O89eYWJkwcy8SJrRiGjiNsMuk06XQO2xYUChbZXA7HI2oj4bCf8z311NP4 5KmfpLGhkSOPPIKJEycd1BrNFgLLtnBsh3AwyM6dO3n66ac577zzXAY8HMYwDNLpNI7jMGHCBBYu XMiMGTOora1l8+bN3HzzzdTW1rrXpWsEg0Fi0RhFq8gfbv0Dxx//IaUK2Krt0x7500Py61//OhNa J9DX10fvQC+GodPV1ctpZ36Cq6++mjHNY8hk3RLGUCjkVkepxsiAVVxauKIySioHBGwpZF2yZAlf +tKXyrbHcB83DLfySlFdEqe2tt4b6Hn2duzFKhawHZui5QAqwgFbCr9dTlEVmpubufzyy/noRz5K bbwGx3HQNI3BqaEU1Htrz7K1uqqpaPsYtmvXrmXhwoVomsbYsWNRVZVdu3ZVEE4lYiocDuM4DuFw EE3XMA2T2rpaAoEAU6dO5er/uPr0iRMnP1Ylnao2oo0fP57m0c3k8jmCoSCG4XrI8RPH8vTTT7Ns 2TIUdXDAlXZ42y/xpAwpZFcOvE5TVZWBgQE+97nPsWTJkuHezRbeulklGo3T09NDT28PPT19DPQP kEymyWbyFC2LYtHCGcJq93V2c8EFF3D2WZ+lPl5DX18vtmP7A9EWAssqYtsuYyyE4+dRDU3zwSoA y2N2C4UCAAsWLODpp5/m6KOPZs+ePSSTSaR0WxKjUVf+tba2llgs5heKDCXwxo8fz47tO7jwwm89 un79G7IK2KqNaEceMV/5zGc+g2Zq9CX6PPBoZDJpimmHu5fczcuvvowe0HFwKDoFrKJF0bEQisDB 8cBRUhwsHc7gIaQLWkVS+hrJ3FARTjvtNC699FL27NlDXV0DPT19FIs2hYJFPlekY28X2Uyezo5u +vsSqKqOZpiouoGhmxi6q+qo6hqaqaOZ7iTU2dNNppgHoK6+AdMM4AA2EkVV0DQdVdUqD03F8fT+ hTdwDa8pwO26ce2kk07izjvv5IwzzqCzs5NZs2b5e8w2NDQQiUSIxWIYhkFDQ4Mf8jvCoauri96e Xmpqakil0lx11VW8/fam2w+lcaJVoXLo2D//86WXv7T2JdKptFszrEr6En1MPmwib72yiakzJjNz 5kxM04TS4FY1NE3ziypUfw5WhrPHihy2plX3syrSNI3Zs2djGAZ33XUXjY2NHrMKjiPA23yq9B4S kFIBqaCqGmiaC1ZNQ9cNNE0jVlfD3va9fPaznyUYiQx7f6Wc4B5CNrl/V/a7lnNsh3hNnBNPPBFV VVm6dKkP1GKxSCgU8j2qlHJY1JHP5ZFSEggESCQSbN26de4999xdf8MNNy6rArZqFXbnnXf97MxP nX75nj17MIIGmUyGaDxKT183RlDn7bffZuEJJzCmZQzCdv2poiqouoqmaP6Il4qC4sLHW6uW0hrK kN/LAT6yGYbB/Pnzefnll3nzzTeJRqNDniG9aMD1io5w38cBpJDU1NSgB0xM3cQwDGKxGG+8tJYp h03j6PlHlZ1Z2Tp6BEAeLGBVVWX79u20trZyyimnsHr1at58801fSsc0Tb+/1lXsEJTPEZlcllyh gGGaxGtr2L5tG4Vi4djly1f8rBoSV22YHXvssYwZ0+IPLNM0cYSgtraWnRvbWL78GTLZLKqmYdu2 V7ReuZat/FmU1dK+u+bsWCzGddddN2zjrRKQFEUZMbcqFNBMHV3X0Lyjs7ODaEMtv/3tb1m/4c33 /f719PQwefJkkskkhUKBG264gVAoRLFY9LuSHMfxt50cOiG4m2TlGBgYIJvNUt9QzyuvvMJDDx0a Gz9XAXuI2fz585m/YD6JRALTNMnlctREa7Btm6bWehZffx1729tc8qlYRDhgFUWZvpMXnkrF+9nt A3W1nkYS6nYqjn3ZnDlzeOCBB2hra6OmpgbLstxQNxBEDwRRNA1V16mrr6e+qZGmpiYa6hsQDjiO W3QvHIFQQDdN1q99lXvuuZtsNo0KJJIJX1VY3U8SubT2FvuYfkphezweJxaLMXv2bO644w4GBgYw TRPLsrAst5VOURTGT5hAbX09utdIEA5HUFWNZDLJhg0b6O7toaunm9/e/FteeumFvzloqyHxIWa/ vuk3P/vGeV+//I11r5PP57Fsy6v4cRFXsIrk8nk+dMIJWJaNoRuoqoqqqB6BoiCFRJFKRaw5PF87 8hp2X3lbgBkzZrBmzRp2795NoVCgrq4OiXQBpihuCkl1X1EoXvcRXreMN0GEIxHad+5kzIRWli9f wZjmZhYscMW9FU1FUzUXtkM654bVAB8gNC7/v5kzZ5JOp1m1ahWGYfgpHl3XcbxJSkqPghuiYqEA TU2jELbDho0beP31N/6moXHVwx6CNmPGdGpqashmc0hRuU1FMBjmnrvvZfv2HUQjrkypbTs4tkSK 4cN3XzW071Y6dNGiRezZs8ffDsSf+VUVrUwgrnS+0hcGd494NMaEKVNIJZPMmTOHiy+6mN/e/Fs0 TcfUDJ+5VlCGqWu8G3MF1nKcf/75Fd61FJFYxSJCOGiGTiQew5YCjzdDKlAsFunv6yMUCrFly5a/ uUhdFbCHoDU2Nt4xZcoU4vE4oPqDXUpJfU0tIgVLliwhly+6fxNuWsIRjl9oUN5O9n6aqzOlEQqF SKSGy45KKfxzLe9DLVkul6WxoRFN03nllVcY0zKG75z/LX7+s5+xbed2CoVCRbqpBNqSR32nNb+K omAaJlOnTuX2229365kVcKTAFsKf8HRdxzQMf10r/AlHsnPXLtKZNPF4nO9e8l2ef3713wy01Uqn d2A7du+avnnTpo3d3T3s2LmDnu5uP01Qsj5fJcI1q+iWF8ZiMUKhEOlMipaWMUybdhhjx7YAUFdX P2Pi+ImbSv+z6sXn5F133cX99/8RR1r+4FEVhXQmhXQcFDQe/dPjTJ06FU3XCQRCmIaBrmojes9S GaOGvn/vKvc/Uta99SYLFiwgHArRMnYsRa9oQShDvLaq+uCt8BCKgiMEqvdwKpVCSkkhl6eutpbf /e53TJs2jckTJ3msbY5IKOQWSlhFL0erHrTHKUUnjnce37noO9z8698w+8gjGBjox7KLGB65Z5om mVyOolXELhTdogvF1cWKBMOMGjWKrq4ups+YzuOPPaFUAXsI2aYtG9Zs2rRx4ZvrN9DR2cn2bTvo 6Oxky5Yt/gesGwa6NyOrXi5U1zQU70MGN6RKJZP09fWTLekRKRAMBzANk8lTpjBnzuF86EMnMnv2 bLr7ulj3xjpWrV5FMpnk7a2bccRgR05qIMGYMS3s3rqH7/3oe3zzvPMIhUOYRpBAIICuqr72U/na 7/0C7K49bZx+2mls27GDlrFjkbZdAdgyZI7o4UuhcgmwJTbXyhfcqMARfO1rX2PRokUsOGoBdfEa H6wAxhBpw3cK2JdfXcvxRx/LuCmT0A2dTDKBprm54kAggKJpSCnIpjNuBZWQ6JqGpqqEQ2FmzpzB 2lde4YZf3sDnPvcFpQrYv6G1d+3SV6xYYb3wwgusXbuWgf4EjgPRaJT6ugaisRi6pmHZtqt/ZFnY ziBpIbxSQae07hQSIVylCFXT0DUNIR1s2yKbzWEVi7TtacOySq/nDn4zbDB6dDOjR41i686tCK9y XtVUArpBZ2cPY8e2kEwmuffee5k5YyaGESAQCBAwjArAlkzXtfcFsLligQsvvJDb77yD8ePH+8AT Q8it0u9DSydV6THG0r03QggcR6AIQS6Xo6Gxke1btlLX0MCPfvQjFi1aRFNTE4FAgJ7eHkaPGv2u AFsKzpPpFP9+xb+z+JprqRszCsObWBVNxdANdENH13WE45BNZ7BKnlZ1Sb3JkyeTGEiw8PiF/OiH P7rh/dS5qgL2IG3D5je7nnr6iaYHli6lo7OTOq/eVFE0NM3EtiwKBReciYGET6TYjoNtWS5APXA6 nqhXaf1WW1eHqqromo6ma4DAcRyf/AAQjoNl2zi2TSASYNeuXVgZm0DMJBgO+43rqqoRDgRJpVKM GzeOTes3c8kPv8v53/yWv8FzyAz4NcflzK/LJCuoaC6jrO2ji2dfQ6Ls4av/8xp+9KMfMmHSZD8F I4f8mzgAaeJXR3mA1j12esvmtxnVPBopJd1dXYxububn//ZvnHvOue6EZQbeE2Bt6bBhw0YWnnA8 qqoSDrrlk4rm5YoNA01TMVQdYdsUcnmsYhGEW1nWMqaFqVOn8uhjj7JkyRLOPOPTf1UM/UOndR54 5I/SDOiX/+rXv4688MJfmDRpEg0NDUhcMa7Ozm4SiSSJZJJMJks2myWbz5HKpEmkkmRzOfJFtw3O cmxsx3EJF6TPMubyebK5HJlcjkwmQzafJeIshoIAACAASURBVF9w0zUl2RPbI4wcKVwJFNPEDAVR Fc3LX0qPthQULbcAIJPNEoyEWffaOj7z6c/SUN+Ipqiomu4qLAoFBChSQfW+ysFYAkzpUWVfs3cJ +GV/7Ojs4L57lxCrjQ8yw8rIjlote+3ypyheiZPuTSQl4DY0NmA7DulMhnA4TF9fH08//TTZbJYp U6dQE4+jq5pbPDKEmd4X6VR+Pql0mnHjx9PY1MTD9/0RI+DmXx0v9eSepIKuqiCl24DgOOCpVhaL RVRNZVTTKLZt28aGDRv/qmmef8gG9vsfuE8+88zTXHP11YwaNYpJEydSKObYuWsXhUKBfD5POpUi ly+ia54yn1T9zpOKPN1BpkakFK74WWk9OsJAk8LthJHCzW3KEqjKqogUVVb4lt6uXlatXs2UKVMY SCQG633Lvd0QlYpytnWoZzyY63FrmcG2bHRV865vyLX4IfH+gVS6H2qZxw2HQkTCYTKezMv48a1c e801PPjgA9xxxx0ce/Qx5PM5QuGQ3w54sBYKh5BS0traSiAede+NqoJXVGJ7OyVYigJlrX0ltjqf z9PX20dTUxNPPPEEL730kjz66KP/al72H8bDbtqy6fZ/+sLnlqYyqcuffe45drXtonFUE12dXRQL 7lpy08aNWJZFOp0mV8jjCBdkwgupnFJ6xVtPoij7rHndD3QHR/KQw5cykYNhrK7rGIaBrptomoqq uKSW9CYRIQTpdJqzzjoLRVG8LScHCyKGlg5qKKjeplql2gTpkUSuG1QqXKJ/hd43y3Foa9vNnffe 46Z3vPcbdpXKyGsu/6VHEEMbaoZhEIlG6R/oR1FVOvd2sOS++5g+YwbTpk0jk05j6MYBc8pKqbBD UTA1HRSF2vo6XnzhRdr3tLmA956D4k0yUqJ4JJgUwr+OXDaHbugEAgF27d5F8+gxPPvss381L/sP kYd99rmV8j9/cd0Xz/vGN5BSYug6woGtW7fS1dVFR8debMuhrq4R25GoikYgECIYDPq5OUVT0byj ROC4QHDbv0q/a6o2ZLCoFWupgyYXPJC5618TXdO9Ant3O8ZSQ/jMmTN56cUXWbV6Nfmc27JWYq4P tIP5SGcjlMpjWKjrOD4bbZf1k+5r/Sik9HPEjnBcYk54QCg7LzHk8EGr635zebQmjm07XHDB+axa vRpN1708qu3zAQdH3CiMqWvkvK99vYIMUxUFYTs4loVVLFIsFn0uwifTpCtz09vTy4dO+BDPP/88 a9eu/avlZf/uQ+L/vP5aeeU1V2IVHGbOnsPu3a7+bjabxbZdpb0CtjtwFBVVc0vXpOOlH3QVXTfQ NR1FU1FkZZfH8BlQJWIaaKqGkNJT7rP9UGtYU7kXCg/+ola2rEkF27Fx1Rsktl0CngKKYMvbW4hE ozzyyCPMnz+fgFeqaAlXQA0hUcsqhsSgI6kI9USZBxwm31b2oKZqBAwTYdnUjx49jJOS5WywHKx0 KkXyrvNymfNS6bKiqKAyRFyuRD8LIpGwG84Gg2x9ewumaXDmGWdwzz33cOonPukvGw7WM5Wm1HlH HEkhl2f0qFEMJBKku9JE61wNKRvQSpOwpvvXZ5omyVSSWDRGMpnktddW8e1vf7u6ht2XPf/8atnb 18vevXvo6ekZxkt+5P/7GOPGjZ3x1lsbNi65917uvucuph82g+07d7Nz/W4cy/JnZNt2UFXph4tD QyuXPdTRDQNV99IhQyptBmdgdZBM8YCgoRAKBrEdG8sqddU4lQNTCFfwW0rkEG3cUojslhwKpFS8 91EptXGbphsG33X7HXzj619ndGOTr4gvpfTXZnKEtZ5Qhq+J5JCfxdDB7kUXjuMcUMCiBFb32Hck IaVAQTsobmD6rJkM9PfT0NDA5/5pES+88AJz5syhs7OT0aNHv6OxNLqpie9+97tcd921NDePIRIJ k05n/L9ni0WsgoVmaNTG3F0QlICCbdkUCgVM0/Q1oqqAHWLLlj0mly9fzoUXXugKSNtFT4azDACK 4A93/IFwOLQxEA5h6G5ucmfbbtra2giFQmSsIo7t+PlRd1QKd9dvVcUsbUrleTnVlRcc7CDRhhTP S3W/awxFVTBUA8Mw/PNlCCFk2zaK52VLtcP+66mq12Pqet6mpqaKCSqbTlJXW0v77jaWr1jBtClT iUQiFa1jPlsrXc+nlHtBpRLAapm3/Vuul0r3oDweURWFaCTC25s3M2nSJLo7u7jqqqv47W9/S22t u4N6TU3tQWcs6+rqOP2007j22v8kHAjSvre9YkkTNExCwSCa7uZmSxO6q1nlhszjxo3j5Zdf/qvd l0M+D/vqq6/K+++/n9Wrn3Np/4YGbMfG8VTfK7J+iqBoW2QyWRRdJRatYfvO3XR19lBbW+8LTpeA pCoKhuauEw094MmTaF6IVlkAIEqN2kNu2VBBsP0NcleipTIkFmUFF7bjkM/lygrnFQw94PVy6uTz eWy7VHDgXruddz3CjNmz2LRxI2tWuYxxyZsGPFKmVImllaKJUs1sic1Vlco0DqXGPMW9prI4+YUX XuC4445j0qRJw/KtFROAGFTdL/fG6gidQ4OVWeqIkUvpM4tGIgDs7ehAU1W6Ojq5/vrrOfeL/4ua mhoM3XhHNE17Zztjm8cSCgfcDcBSKQzD8ItVjj1+IYlEgo497SRTSaKRqC9aHgqFmDBhEplMhtde e+2vgqVDmiV++OGH5ZVXXsnAwACBoOkXJCSTKbq6uunY24kQDtlsjmw2QyFfpGDZFIsW6UyWZDJJ T1cPqqJSLBQpWhaOY6MoKkHDJBIOEwxHMANBv7ihVFSgKooXEg62hyEH+9W0fZUYeP+n7CP8K61P S2G4qupomu6uk1WdSCRKKBQmHI4QDoexijYNDU04jkMmkyWfSfF/b/k93/ve95g7dy4zZszg8Dlz eOaZFZimSXtbO0cffQxNTY3Yto1pGh4xplaE/G73nfQBOpLsuCyRxmVgy+fzrFmzhqVLl9LU1OSn ZYaxwJSY1uHsltwHWH2iquw1S3yBlALb2zO2xCAXi0UCAZ0nnljGcccdx8wZsxHCGdEn7SvEdmyL SDTMU0/+mebRo8lmsoTDYVpbW5k4cSL5XM5N8eVyvmJlactPiSQer2Ht2rUsWbLk8vvuu+9/nC0+ JEPinTt3Nt1zzz1dV111FWPHjiWfz9PT08Xu3bvJ5/Oex3AHYC6Xcb2l6qZadG8bQqkqKIpeMcNq KK5AmGG4TKduVNTalrygFINMpYLwvSseYVJiGt2QVfP7KyuVHvYV08ih+B5khTW1ksmVqrcxM34f 5y9+eQOf+cxniYRNpkyZQlNDHZoCP/7x/+Huu+/m//zLD7Edm5tv/o2bkxXSG/CVa3Q5ZA3OCH2w qhzun8oFu0vrzwOxxCOx46LyiS5DW1rvelVFw8Fl43jnHwgEiESjpAYsisUijz/2OPOOnMeYMc1D vKrcb/ooEAgwb948wpEgPb09XmbAxHZstx/Zsnx1StM0yefzrtyMpiIcQTbrAryz86+zidYhmdZZ smRJ15o1a2hsbGTTpk288sorrF+/nnw+TygUIhAIYOiGv95wHAfLtigUCuS8sLdQKJDNZlzCyAsP Vc3V9AkGgwRDQdf7lJXoyREIpfIUQ/nfy9MPvi6QFF646lSkMhzhjJiyGCn1Uj5pSCldMbOyEHPq 1KlEwm7hQiQaRVMgV7CYNGE8F198MTfd+GuWLVvGokWL2LFjB47tRhTl4el7sY6ODpYtW+Z7230B dX/vU7q2Az5HuMsFUbaVhu1tFlYoFNA1jUKhwLhx47j5v25mT/tuhHSQ0vanhHIycSQvGwqFmDVr Fs2jm0kMpIhEI5imuzNBKpUik81gWRa64TZ8+M0Lqju5lriJ0i7x/3CAffjhh+XSpUsRQrB+/Xq3 EFsIDNMgGov6lSp9/X20t3dgmK63DATc7hdVUdwaX9tNpYgy7d6SGp5h6F6IOPzyB3tPxX4H0rAc 4hBQDs+BeqGdEJV/L3+9EZrNJXYFEHbs2I5lSzTc1r1UJuunbVRV5cJvX8CvfvUrXn75ZT75yU+y avXqCtC+k6Z1PxdbZuvXr+f++++nrq5un4B9p+RSuSeWouxelX0GpZ9LZYxuRVqWuro6CoUCwoEH HnigcnCrw3z5iBDIZXPMmjWLceNa/EIM23I9bKHgCqNrqkYkHEEK6a9hFUUhm81y2GGH8cQTT7Bh w4Y1/1CA3bZt22lLlixB13V2796NYRjs3bsX0zRpHT+RnTt28/bmrRSLNiedeBIXfvsCJk2ZzK62 PXT39CNQyGYLRMJRGusa6evu8fstU6kENTUxTF1FVUAIG9sugCNQhoTBgx6zlAt0k4qltZl0hJ/8 L20YJWzHfy1FDAes8Nlf1ZMJlTjOvr13+UfT09uForj6SyXR7FJ4Hg6HXakTJGZAJ1vIc94F53Hj jTfS3d3NqaefxpN/fppMLks4GkXRNDJ5t6653Mspwu2YyWYzOI6NqaiYiupvdakoCtu3b+fbF1+E HjD9Wumh4HOQPtCdUk21F5g6Xpub20Du/lz6myj7W/nhIL3DQSgCqUqEIhCKwLILFOw8gVCA0S2N XPuLX7Dx7c1oWtBDq45UFKSybw2oUqpqb8de2trave6hwchopFSTYztujbcQqCoEAgamqXPttdcs /IcC7MqVKx/duXMnqVSKbDZLLpejpaWFSCTC66+/zsUXX8xrr73Giy++yJIlS7jpxpt46KGHePPN dVxxxb+TSqWYOHECAwMDbNmyha985ct85Stfoa+/j8MPP5xkMumnTpzS4QwJe6XYb7jm1+CW0g5e p45t28M878EcYj9VPhWThjeoGxoaUL3Ukm4MpyDCgSAaChdccAHLli2jtbWVRYsWceWVV/Lss8+y t2OvKzcajZHJZLDtwUHpCIGm6QhHUBAOThmju2vXLn7+85+zdetWopGI3w/8XkPsyqhEDMnd7vu1 FVUygiIOO7ZvH5HN35/F43GmTZvmhdx2BVDLK5zKH3c/O+FrQ8ViMXp6e/jiF8+Rt9/+B7l7986m v2vSadu2bad99atfrQBrsVhk48aNSCn505/+xOmnn47jVQwJbFe4S1EY09LCd79zCc3NYzj33HNp aKjn5v/6L758zlfpTfYxfvx4rrjySlrGjNlngh9FGxYyCiEqZuXyPURHkhUV0tvafKSZUVH86bGS FR3Csnqh64jN38KhpaUFw/Na5pBmbj/hX8ijSlcydcWKFfzqV7/ixhtvZPHixXz5y1/mxBNP5JOf /CRjmseQyKSwbJchB3CkQ9F2sNIphCNI9PfT1dXFzy67nLVr1/pgLTUADL0vQ+/NPu932fUeTD62 Qg99iEKboiguZ6ZI1q1/g1NOOYlYOFbBee/rXRynSGNjI8ccfQz33L3kHY/bVNqN4EKhEPF4nM7O Tm666SZ27drV9T+RNj1kALtu3bpH33jjDUaNGoVlucyfYRhEo1H++7//m49//OODN19T0RS3L9LQ A/QlegCV+fPnY5oGV111FZ/61KdI5xIUi0WOO+448uksuq5jewoJCDEim1k+szuOqAj7SgNtJC/o lt6J/awHFRThViqpSqXAWDkrqijCr1AaRoQJSWNjIwq43k8b7JRRlMGccDgQxLEdNF1j0qRJ/OQn P2HChAlcdNFF3Hvvvdx2222oqsqXvvQljph3pJ+31XTd1znKZl3FhbvvuJPlf35mkCcwTb92ekTy rAxkpXPf51KjjHUvf3xfO6WP9LtSltdWVYUd27eTzmSIhWMev++FsWXibuVmWTbBYJjDph+Gph8Y X0PPbW/7XmpqavxzampqwjQNVq1exXcuulCe/83zmT17jvJ3B9jly5f7qRFFUYjH4+zZs4cbb7yR hQsX+uV2bhP4oKVzKWpq6khlk9x6yx/40IdO5gtfOJdIMEI6l2JUYxOr+/pAQD6bxTRMv+RPyMG8 hW27u4APC4dk5UCSUnrbVLgDUFE87SLv+768i6pqFUAtsYyKovmALX0v5WtLk5O0JNvf3sxnFn2O sWPHeJ7QbXwX3vOlAEcdBImiu+2AGgq1tbWcvWgR/3ndta7WcT5PNpPh3vuWcNsdtw8/Z2/CUHUN TdcJR6OYZeSeoml+0Ur5vXo/K+CHhqQjniNubXPpnqmKwoaNG8lmMtAEvX091NU1VubZ/PZdxUuX uRCYOGEixx57LGtW/4VRoxsJBoNk0hnq6uoqBAdqamq8Xfzc5UA2k6W3rw/TNEkkEgwMDBCLxYjH Y7z99tvDiLC/G8Du2bOHiBdulULis88+m0996lODPZ4jzLzRUAxb2tx99z1cdcV/8MhjDxMJRsgW sgSDITfF4pSUHQRSr5z1hSNQVKUMhLICoAzxGINrLVnhIUqVR/tNVSgKinQ9bCnYLhX+C9tLQ5Ty pV61fCQcIRKOkM1kWbRoEZFoFAeGpGlUD7TD37skYpZKp2hv38v41vFoqkooHPY3kRoalrrpKeEr aei6hmGaqLqGMqwbSRl+3w7gWffJDwz5f3di8thhdUg+1XuOpqv+eQgp6e3tJZfPAwYN9Y2DhR1S qUwAe5esaToDA31MnTqVD53wIda+vBa9tI4vFKipraG/r5/evl5y2QJDLp+WMS3++Fy3fp1XsVba fKuePz/zZ37+b5fLn/7r5crfDWB37tzZdMYZZxCPx7Esi2AwyI4dOw4IVoCB1ABdXV1861vf4n9/ /X9zxqln+jlLy7IImUHfO5fU3fdNJIn9DqD/CdnQYWr7ioIQ0vcAtu12EmWTCWbPnk006O70Jhzh Fo8ciNTxKn82bdyIY1kIx0E3DEKhMFIKX5pm6HXbQqBI6bUUam56rfwelEJ68f7fk/JJUXo9qUNL OhVlkMEPBAIHnASU/fCuwWCQV199lWeffZZCwWIgMYAQgnyuyNqXX6WhoY6jjzqa1tZWr0jH87BC cvc9d9PW1s7hc2bROr6VgcQAPT09fkVWNBrhtj/cxuOPPypPPfV05e8CsNls9qG2tjZaW1vp6emh tbWVSCRCxKsb3RdYS6HsrbfcgmM7XHrpD9zHpO1KVmayhMwQoVAII2i4e6yUpUX+WuY4oswTOUhF QRtaFap4bLU3LlXP0xatPF1dPfzoX/+VadOmuY30pbBXUd2t5PZjsUiU3v5+3nrrrQoCLBhyVRZz 2eyIg9yWLoPuODbCEb7qYCmn7Euvvt8TmJeHdUp9s7L0uzWMEFQUd4VaLBaxbQerKGmobyIUDAMO vX091NTU7ff9Vqx4hieffJJr/vMaHFtSUxvj5JNO5sMf+TDjx4+nsbGR2tpamkc3U1tb6+0YqKJp BiC57LLLePDBB7noou8yefJEspksju2gazpdXV3U1Exj4sSJfP/732fTpg1rpk+fefwHHrC2bS/M ZDIUi24HjmEYZLNZJkyYQKFQcAkRj2AprSVCoRDbtm3jV7+5iV9cu5innnmKsS1jsUTRrxAyTZN0 LsWMGTM47rjjeP755znuuOPY295OMpkkFouR9crsKoiTst26S2tPylIcjhzssqmvr6dYLPqNBTU1 NQwMDKDrBqNHjaK7u9urgxWuCJrq7nMzjBz1SKuSl7eFREGjvz9JsZDjtFNPw7JtVE+Gc6iI2rA1 nwfqVC6Dpmvs3r17cAIRgsRAwkuPVE6EzlBPpXrrbi/Hqgyp/vI3bPaUGt4LgN11sPSkWmy3hc+7 Z5pmuPlRRyCF47Js0kHokEik3KYAB+rrGty9fFBoqm/2o2DHcfz9ZNPZLCufW8l/3XwzDz3wIJMm TeCzn/ksZ599Np/85CcpFArE43FPvcPvHPbPs31vGy1jxgHQPKaZb3/720yeMplvnvdNJk+ejKqq pDNp8vk8bW1tNDQ0YJomjy97fOHfhYdVFMUGdLeYO+CuR4Qgn8/7+8aU6jlLFPq2bdu47bbbuPGm m7jokotYuHAhoWAIR9h+jatpGhiqSbQ1xg++/30+feZZpFIpautqCUciWJaFqht+sXn5jI73IVuW harphMJuSeTu3bu9LR/sUnTgklUFLwSKRIlFYximiZCSaCxGOpXCsgs44Eu4uOVzePXOg2AtD+1s u4imwUMPP8wxxx6Lpio4Qh4wFTKU7EpnMuzd2+GuQRX1HavnlwoiDpSjfv/CYbfQxC4WQVEwA24n TSQcQdVU8vk8qVSKXDZXlpd1ATVh4kSi0aifhy3186qaRsEq8uqrr3LnnXdy0w03AnD55T/lwx/5 MCedeHIFKItWnkrpOPf6M9mMtyODoLevF4CG+iY+9tGP8dBDD3HUUccwYeJ4opEojuOQzWYpWu5E fustt7J129uXTZk87WcfaMBWhHCxmJ/jS6fTqIrqCpP5e8sE2bJlCytXruTqq6/mU5/6FN///vdd YKMy0v5ryXSCU087lct/fhlXXHklUkomT57sSsUIa5/nomkae3e1ga5iBgIYhrtn62HTDuOYY4/h sGmHoelahYddfM217j8bGs2jmzFMk3AkTDbrhnlDRcMGgev2u5bWnKqqUldfx/nf/BafOvV0skUL qanvCKzg6hEnk0m2bttKLBY78FpaKXP44OpGKYMFJSVPKst2I3j/1/XepKC6m2MFvHsfCAQwTNNv odM0HUW6a/xSTvqIuXOpra1FIFFRkLYDusaWLVt46KGH+MEP3GXTd77zHc4991yOOeYov8GiaLmN JYYewDSCSOmwe/dusjm38yubyaJqKrFojEAgQOuEVqIRd7/cQCDEggVH8d///V/89Kc/xazz6pHT KURaEIvGWLd+HatXrb4c+PsBbPk6JZfLVYAV3P0/V69ezde+9jUA/v3f/93r0BjptVRAEo/WIBB8 7/vfY3RzM/fecw9vvfUWff392AV7v+fz0U98nClTpjBv3jwmT5nC2LEtxONxGhsbCemmP4vnrQKW ZfHDH/6Qp556mlt+/3ueefIp4g111NTUEg6HyXrSnPvwLRX3wLZt/umf/onzzjsPG0nINHDK1q/v xMPmslk69u4lGAz6E4IfOjuDa2h3bThIKpXSXj4pJ4azvOXeuqQscSB2eL9MuqcaWXrdUaNH+VVk 6UwaJTvYLhcOhxB2EekRT3pAZ8LEiYQDYZ+FL02oDz/8MD/4wQ/49Kc/zfnnn89JJ53kti/aBaS0 cGwHKQXhcIz+/l6eWf4MTz/1NH9+5s8kEgm6u3sq6ILGxnouueQSLrr4IsKhMKqqAwqnn346Dz30 EE8++SRNTU0IIdANnWQyyeTJk/3GiXeNj0MFqF/+8pflHXfcwcSJE6mvr2fLli1ceumlXHDBBRiG gW3bpFIp3njjDb72ta/R19fHn//8Z44/cXANr6Fi72ePUwDdC0FfX/86zz77LG3teyv+fthhhzF5 8mQmT56MFJJwJEwwGCQUCo/sTYYAKJ1JEw6FsCyb115/jQcfeJCbbrqRQjGHtGF0yyg/nWTZFlJ1 c4GBQABd09m5ZRdGRGfx4sV8/etfR1OMCmpHjKCkv3/Cy+bVV1/lnHPPpbOjk/r6uiGvUykzWt7Q LstqmqWQlbXDQg6bYCsKH+S7A6xt274Ei5CSaDRCMBj0K8D8z1HTUVSFXCblTkq5LGecfga/v+X3 7mcl8T1nLpehu7uXN954gxNP+JBf6FBizVLpJKlUimgkyvLly/nKV79CLpujWLSJRsMYpuH3wQpP KL5kpbLPeDyO7diYRpDnVj3LFz7/BaKxKOlU2v1sDZ2amhqikSgrVqxUPvAedt68edx3331uCJtM Eo1GeeCBBzj11FMZN24cHR0dPPvss9x4441ks1mWLl3KUUcdNcRHHbgkzpJFDNXkiMOP4IjD55J3 7GFeuZSHlEKi6RqGZqCC39C+vxRKOBRC03VM3eCE4xYya9Yszj33HO7/43088sgjvPnmmzhFz8vp oAf0wYZoIfnIJz7Mdy+5hI997KOulpP23nhYISWRaJRoJEonnRW7spUHv4LKUNgPe8vXrGWSMuoQ kFYCUgwrONlXnvWgrsErsq+YiITjn3Q8Hqevu485c+cSCoWH/X8oFGHMGJNRjU1+oYSfFhzop7a2 nlg0xu9v+T3nf/N8LMth3LgWLxftMr66obsCB1olB/Cb39zMN77xDebNW4Cpuq89ZcoUjjn2GFY9 t4pAIIAoc81r167lzTfXyXdb/XTIAHbu3LkUi0VCoZAfOr711lvcfvvtHHvssbz22mv8x3/8B+Fw mIceeoiPfexjfl3xINF6IMC6QtEWNoahoygqhmaUT7a+nkQp6+J3k+wrRCljWRU56I1Kecq6eA11 c49gztzDOf+b3+TltWtZvXo1zz33nNvfGw0yZcoU5s+fz5QpUzj2mGNpbhhDb7KH2nj9+1I9VFdb S01tzcHlg5VyVlQZTjKNUJJYPiH6j+3nxIeWZVY8Ltzviqqgin29z+DP0UiUXC6LHlA55pgF/nVI X0xjUADAMAz3gxTCl44Me4qMr7/xOl/7/7/BkUfOpX1vu7vtpZR+f6xpmCMKsgMkEgkKhRyBQAjH KdIyZhzHHH0MDz7wMGPHjqk431Qqw/r16/nAe1jbtmlpafEJl97eXkaPHs3ixYv95xiGwW233cZH PvIRN8VjWyNo+LAfEknH1EwEbqeFY9tYVhEHgapqrlC3qro/K+/cs5VSLcIR5IoFNNWVSFUBDY3R zaM568yz+OhHP0I2m2P37t20ThqPaZqEwxFMTCQCB5tINIKGgj1Mt/CdmaEbnoeNjCCfcqBeUW9g y7/eyskl34Sf4hmqN+wOfuFPrbV1tax//U1aJ42ltbV1yHLAAjHIxiuKUllLLME0gmSzKRKJhO+5 xzSPIZvLYujGsOigvHzW/cyhUCgQCITKIgKbOXPnEI2GB5cT3sTU0tLMxk0b3/X9OWTa6yZPnnx5 qRdRSkk4HCaZTDJz5kwAPvzhD7NmMeI3agAAIABJREFUzRpOOeUUvw7XNE1UqVYc2n6+VOnlQKVb uGDqAULhENFwhHAwSMAwMTUDXVErtInKD7WknO8d+wJuwHQlaEqwEICmmgggEo7T1NjE/Hnzaaht JBaOo6HgYCFwAImh6rjZRFempvT+mqJUHCVvtK9DV91KnvkLjnSLNryjdFZSKR2VuFTEoJawopbl pSV+v29pApBSuF6r1Dcsh7C9ZWTasCL+snMdiXUuNYJUnLci/C7ZVCqJosOZZ55Jc/MYFGl7zHFp hzyvb9U7b7/pw9foglAggq54e+wUBcISFLNFl5AUCsISOEUH6UhMPYCGRkd7B7mMKxczunl0mVMw UVWdyZMmk05nK5h5Q3dFGLZs2fLBB+xTTz11eSwWK2v0dm3Dhg2cfPLJ3HrrrRxxxBHuZlVlxQ2H FMNd9vV+mIN4X15HVRRGjRo9pNhCcCjaYPODC2LHdvxWSzetJMrO3/XEsViEU045ZcS0laqq/s54 +3xPzZW3Vb3wNpVKVezva9nuRmfS2yv2/7X35XFyVOXaT51TVb339PR0z5aZyb6QsBngsoSEgOwk sggBBANC4HJFQUC4+umnLCL3gujlKp8ooCIIKkEFBAIBzAcSRAiBkBDIMpkZJrMvPT29V9Wp749T dbqql8kkBK/3fha//oWZ7umurjrvebfnfR7TNFFf34CR4WGceeaZaGlpQTabxvDIoHhPbshxQaBg mibGU+MI+APo7u7Gvs7L/l0Y7DvvvGO+9NJLAvPrPCKRCO677z60tbWJCQmOZCJ/Fwa7v410v6ca jIf7bW1trhnW8i/i9lwmjIrVXLOkZWMPIdgb7aSGz6twLDlFqF2EccxENpvl7B4lFD0dHV045JBD ceziRZxJxB6IL+3IM+auqFnHcN8AtEwO82bPxXdvux3JZBLjqXExQkgsEA5jBmdt1ApIZ9LY9uGH yGSzuGLVFaiL1sFgBqK1UZgmp6D1+TlX1PDIsLgWI8MjCIfD+PCDDzE2Njbw39Zg33rrLfT29kLT ykEMjzzyCObNmwfGGEZHR/8uPesnd3z822Nfr/r6ehGiO58TC5yZFrCj+K/NmWzzYnHjdLNCVOew mtyj0mYgSRwwITlCftM0K3JIeTwyLr74Yni9XuS1vCMBsVperCiwXemoa6xHJpNGIODH2eecjTmz Z2NsbAwpm5/YNK28mreVdu3qQMAfQKQ2gvvvvx9HHXUkxsfH4fN6IVkkCLqhc2BFWxtyWS4PSijB +Pg4vF4venr6kEqn/nuGxBs3bjSfeOIJjI6OYmRkBD39fVB9XvT19eGKK67ASSedVKx2WuLIZXIa H+dR8l+lC/TJPKz/LDb+0lycP5xnsG8HpXxedPr06bhk5Ur0dveCEgJFkYXncBph0WNy9kc7L3Xm qKbBxMM+//192CyFqqJa5O68BzrSP4qR/lFEIhGM9I1hxYoVOOOM0xEJxkBt0Wor13ZR8QgMMuGS KMyElstDy+QQCARRKGhoa23FI488gksuuRT9Q4PYvPV9GLqOoaEhDA4PIZlKoXVqG3b39WLh4Yfj mGMXIZvLIRyOgFIVAwN9loFLiNZGOdJNoZxwgVAhjwlwqc7/lga7YcMGdHR0YHh4GNF4jGMwdR3N rS0488wzoarqXmuA/uNASatKQigUxNHHHI1oPApFVTEyOgqv1+cqDpUSxk3GM3LB6SI6aW8fLg/r +J0kEVAqQ7HoaFRVhSzLiDXXIRgNcA0cAlxyyaVCvkSmSsUIw8aI53I5pMbGYJomspk0Mpk0NF2D 7PPAE/RDkgjmLZiPO//93/HcM8/iwvPPR8dHXUimxhGJRBAOh7FlyxaMjo5i165dqK+vRzgcRjbL 1Rfq6xuha3y6qWCp32kaJ2wzmCHod+3c+L+dwb711lvmgz//GVSfF9F4DIPDQ6iNRbFj23Z8+dpr cdRRR1k5GJmo8TDh4x8Hv8khfwjHHLMIp556KoaHhqyWE50gRzXLYIfO31cyuE/s/AkVhptKpVFf X4+B7iHc+t1v45BDDrbryTCYXiQmqMDoSKkMjekgHg82bd6Mnz/0EJ78w5MY6u0X0QgA1EajOPX0 0/Dor3+NzZs349jjluCjjz7Crl27sGjxYqy44Hy0d+zC1V/+Enbu3AlZkYXR2uGv/ZAsgntKKKil wOBsAf63MNh3N79n/uSB+807v3cXOjo7kc1kMZJIIBwOY3BwECeedgouvPACFMzJe1azyuMfRls8 QqEgzj33XKQzGcTq6ktqBlbobToegMvj2p70v2zjoRSHHHwo2nfuwklnnIhVl1+JaC3vGuR1TjdL JCqWNZMcCC6rbVVbF4Opa/jxj3+M6276KlZeshIvvPACcuMpC7hhuuRCFixYgJtuvBH+YBD/99VX 8Pzzz+Puu+/G66//BY8//jhu/87twmiHRwahqioooZAph5sSIkFVVQFPlGUOffConn1LFf4WOeq2 bdvw3vtbsG7dOmiahn866kjIsoz58+cjFA5jZHQEpmkilclgaHAAX772WkxtbkE6nwP1eMAsQSZW wUiL/VH37zVYEosmYFJSJlq11ztYVemNva0Clfy5WfkM7J6onR+yah8k7dmAmPWxfn8Iy5edicsv uwI/ve8+TJ81HYpsCsOVrPezC1V80ZpgTAKReFhpS2o4W0b7s6VjMrPKe3Lvl0nnAA2447v/jqZY MzTGhcI4K4UJBgmUyOjf3Y2WKdPwlw3rEY1EEAyEEa2rA2Ci86OPMHveHHE7bA5kiVJAkkBKIo/3 3t+C7//HD3DssYvBYKLe24R4YyNSqTQUheLMc87CjFkzUbAI2wuFHGSZ4pCDD4Ghm6CEWnPR/FpH asPo6+v7+zLYxx9/3Fy7di1WrFiBRCKBtmlT4Q8EUBeL4YgjjkCuUAAzTRS0AlRVhWHlGMcuXYoF CxYAsEikTRPEGrVyQw8lASVkAFKFHBhjoFafLJvNQtd1eGQFPq8XXkWtKtfwP/ngJucObS+++GI8 /PAvMTI8imBNEIRSMKPy0ARjVlsDRPz7X3n09vXi1u/ejnlz5yPPDHE2doipEBUaK0CRPbjllm/j lltvxYmf/jQefvhXYDChaxoitbW4+OKLMW/uPKTSKVy88vNVr1175y7ceedd2LTpXRQMzaoYc9YJ ALjxphvx1FNP4dyzz0NTfRMAk9PvVtAGYgYTPeW/qxx29erV5uOPP44NGzbggAMOQENDA0KhEAJ+ Px+Rcgyop7NZeP0++Pw+pHMZnH7a6ZjZ0oacY5ExqTJOWDMZxgs5jKaSSKVTSIwnMZwYRSqbhurz IhwOQ7F0UlKpFPL5vGCs2FMrpOxh/VcGfSqNwT92H2ZvXy+5H2VvVy4GddRRR+H73/8BxkYTPLcj 7vq1ZIeVpnNu9+8juRgaGsLiJYvh9XihO0N6kwImRTI1DoWoSGdzuPnmW7H0hKV4482/4p1N73KV BI+KmtoIpk6fjnPOOxcXfO4CGEYBjOlgTBeIKmZVQd5++20Ew0FL8pOKSrR9HHbE4Xj4oUcwnkmi b7APBhgkq6pdKU/NZDPIZnPIZjN/Hx72jjvuMH/4wx9iypQpiMViGBgYQDabRWJsDOndu5HTNGQy PEH3BQLI5/OIxerATBN6Po9FixYBAHKF3B53EyoRJJNJ7NixAxve2Yj2nTvR9dFHmDJlCmbPno2W piYcMHceakJh1IZrUCgUuKyFYYBSyr0xKbZzOD3JnuY13WNlnwhgwtoXPgkIr0wICrqGyy+/HH99 8694/InfWtSdRRDEXnnwfWSfICVUNpU8UqXjm9/8Jo5btBg5vQBFVQFTd20qzDSRzmZRUxPBv991 F775v/8Xli9fjkWLjhWobPveaZpmaQKrDp9KuOFK/N5u2LABZyxbhng8znPbkvOZP38+qEfGunXr sPz05dBYkXuqUv2lUCjAZEChoO1b2rA/F8O3v/1t891338XY2BiSySTy+TzGx8c5pYpF/UhlGYqs QLd0YmpqapBOpWHAxIwZ0/HE73+Phmgc6VwGlFKoVrPfzuVkQpDXCsjrOkZHR/CHp57CV/7latAA J8+GoQO6exHd9t3bceyiRTj88COgqgoKBQ3ZbAY+X5Hqs/qKZGJzKPVUH2fBSkSy0k/G/xUshMTF TGITYbPJ3qk95LTOXH7z1vex8tJLsGXLFh6NKIpbu4eZk/5+9uYicMTS5FLsPeXA6UwawWAQI4OD mDZzpotMzsY2Ow8nSEK3cMiyoiAYCEJ2MX2UA3AY00GIjExmHIrXg7GxMcRj9XjuhTU4/vgTwZgB YhWN7O812N+DlqZWPP673+Kss84WDJREkvDcs8/hzDPPxpy5s5BMJqEVNDQ0NMAf8MPn9aG1tRVn nXUOFixYMLhgwYL6v6mHfezRx8yf/+LnGB4eRj6fFz0nTdOQyWRAVQU1oRDSmQwkIsEjcxb58fEU 4vE4tmx9HytXrkQgGEQBBseAypVPr6+/H7lCHs8++xyuv+YaQCEIh8MwdAPpTBq+Gi/8/gB8qgeq LOPmb98MiUh46BcPYdGxi9Da0opslut65vI5lwHaF1v8bLczwMpHwfaiCk1KuX9ZCesgM4ufZ1XT uJCUNHHNay+2XJOZMEjRaA88YD4eeOABLD52MVIpzlW093xPzH1+Jir+XH7exLXhVTNcVVUxY/oM jI4m8I1vfGPCGkRpdEAsehlJIjAMHYAMKklIJpOoqalx9fez2TS8Xj65UyhoUH0+DA4OAgwIBALQ Nc2tJWQWv4c/5Mfg4KAlM8p4u8ys3LpJJBJIZ9II+Hl0efXVV+O4446LP/DAA+Yxxxzz4fz58+f9 TQz2/gfuB6UU4+PjwlABzsvk8XiQLxSwY/t2sRj9oRCnzhgeFY3v5uZmhFUfUvksqEwF835pIaC1 pRUPPfxLXP/laxBpiMPn90HXdNRF65DOpFHI55FMJjGcy0OVZWsAvhdXXHEFlixZjC9+8Ys4+uij MTg0KPC1VCii8zDZLirYA9ymA+dqMyqUGvrEoSOrbMATCCpPzmAqG3ClUNP+f1sRwA7pHn74YZx7 3nnI5bJCc7eaB9xf3My2oe+JoyoYCOKtv7yBK7/4L7j0kkuF4kAlQy09Nz7zLFnVWZ1rB2dzCIVC 2LBhAx577DEsW3Y6jjr6nyArFNlsCql0GpFIBNlsCn9+7VXUNcYwe/ZsYXylEQMhBK2treju7ubC aswAISokxsquJQDE43F4PB74fD6oqoqFCxeip6cHd955J1paWuauXr3aPPfcc6VP1GDvvfde8ze/ +Q0GBgaQSrkxko2NjdixYwfapk/DFy67DAAQra1FbawOPp8P4+Mp/Pa3vwHyGuLxOAqmYVXhaMVw qnt3NwzdwOOPPw5/OASF8oZ0bbwWPT09iNRGEPAHUF9fD0IoenfvRueuXQhHatDU3Iw1a9Zg7doX cd1112H58mVifM+U+c3lmu1UuL7KjAp7v2jLwi+zpN5qljDUizqWuQcPK1X03KU/l9GZWkabzWax bPly/OQn9+HKL1yO2njsv7SoZCub28fgIJ+Auf6G6/kIYqmBT1AMI4RCoRQ6Y8jmcsjlcmisr8f6 9X/G0qVLoWkG7r77bqx5/o845eQzuMxGMARV8aNvcAB/evlPWH7GMjTWNcAAoFlV4tLrH4vFLA+7 53grMZaAx+NBocC7I9FoDKFQCMFgEJRS/OAHP8CDDz5oXn755dInYrDbtm2755ZbbsHY2BiGhoZA KYWmcTV0r9eLbdu24YQTTsCPfvQjhEIh+AIB+Pw++D2c7nM8l8WCBQtw9llnYf68eTCYwVEilgco zVE8Hg9e+cv/xYtr1wq4mqFpGBkdEZ7W0A1RNo/H46itrUVyNIGOXbvQPGUK8vk8vve9u3D//T/F Lx7+JebNnYeGxgaLZ0lHMOCBbhgYGxsT/D9kkrxEgkKl1JBQ9MrEEVWZpRMrjhCTAz/sn8mEnqpa yFnKU+wyWgKE/EFomoaTTzwJd33/btx4/Q2YNYcD4Akh0KyczCzxuAaKqYLrulQJjSW3tI2jaOd+ vUwIkqkUhyUqCgI+D+65/yeYO2MWdFMHAXMr1ZdcZZu9cseOHVBVFYcccjAGBwetKI6hYORBVYJY Qwy93RzhVF9fj3xhHF6vikwuBa9PxejQMH7769/gV4/9GgwMFJwbOWdorntIJAk9PT1YsuhYKJRC ph4QSUaB5Vz6Q4lEQmzUpkMXqKOzA/X19WhtbUUoFAAkhqf/+CS+8pVrzM985jM44YQTpf3a1unp 6bmGEIK2tjYYhgFZlhEMBiFJEpYsWQJCCL7whS9g6tSpiMfjqKutFcaqMwZFkWEYOjLJ8UlRZyYS Cby2fj20XL6q3KLzsIsodbEY2traLDSMhKBFIn72ss/gxptuxIa3NiCby8Hn8yGXy8FkJuKxeDE0 rtbumaTuq7jgZnmVtZJyOzPNfdKbtXVvbUC/APFXKHrZIZ0iK6ivr8d5552Hy69Yhe7ubvh8vkl5 jP19SBKxGBw8GB0axbGLFwuGkbGxMdEHlUoUAO0jmUzi9ttvx/HHH49Fixbh2WefQzweRzqdAqVA Pp/FEYf/E+66699w3Ve/hDXP/xGfOvQIKIqC8dQ4IjW8m9DX1wdDB+bNmwfd0KrWKhRVxcDAACQi QVW82L17NwAGVfEi4OfKFTU1NWhuahbtzVCQP2prOSHeWGIMO3fuRFdnFwzdgFYoYFfHLtx51514 662/mvvVYJPJJNrb2wUTvk2enEgk8Lvf/Q6MMbzyyivIZrOiIqszhrxWgGFwdrytW7ciFI2gtjYK YgJUolU/r1AoYP16rkwfDAYqehzXImamYOGzL56txUIkCXWN9VizZg3OWHYGnli9Gr09PRb5dgpd XZ0oFApCqsLGJ9vq4cZehMasCni+DBDvOG83IL/Ko8rGMKEotRMPDNNltLfccguOO+44dHV0QlFV l3FMtvWyt7msWy+WQ/m0QgHBmiCuuuqf0TKlBbqpozZSW/Xa2td3fHwcDzxwP9fRVRQMDAxApR5Q SkQoqhsaLrjgQnz/ru/jlJNPAqAhnU4jFotCkvjG8PTTT+LQTx2IeXPnctFry5erVHFtuolEArlc Ds1NzcJbAwSGUcDbb78NQoHNmzejvb0D3d3d6OrsxujoqPj7WF0MiqIgNZ5CV1cXurq6MDQ0jGwm C0oIHvrlQ9j6wZaB/WawjDG8++67aG9vByEEfr8ffX19uP766/GHP/wB3/ve9/CHP/wBiUSCV44t Q7WP1FgSb7zxV8yfPx/NzU0ghE74eZ0dHRgdGQEkt7iVvcCZySUjbc9iWA8AnDXANKGoqjDc4b4B BAJBRGuj+MqXvowVK1Zgy5bNiNTUuLwVc7ync4HZFCTiYVR+CA8I+xz5e5f+vWEw6IxxbZsKz9uP ycyXlkYFlc7fZKaoliqygqamZjz44INomzZVKNaXemanWvp+7xNTikikFsmxcZx15plYfvpyEBDI EkU6s+cZ0qamJtx662346KMuLFmyWNQogoEQKJVRF4lDpT7k8jmLAVMFoCAUjMLQDSSTSYyNjWL1 6tVYsWIFp6K1NjgDJjTNjVDq7u5GMBjAzJkzkUonUdAKGBsbxa9+9ShuvPFfcfHFF2PDWxvQ39+L DRs24LnnnsEll16CTCaDHTvaMTY2Bt3Q+QBBLovevl6MJkah6RqidXX486t/xksvvhTfb33YJ598 0jzzzDNFSLy7ZzcuvOgi3PGd2zF16lRRhLLL56VsAlu2vo8lxx2HFStW4P777+dQRKkIR3DmXqOj I3jxxZdw0UWfgz8QQCgYEv1LVzW0AleubuE8ZZlCkRXIiiw8bzqTRi6Xg9frxfhIAq0zpuOPf3ya i/MqKqhMXbuqjamdqPhTWpygpWE+m5hfWPADl6gkVis6lXo/qUQPyK6W7qlolcvlEA6G8NQfn8aq VauQz+ehqCo0gwuMGYZmeTTmyk1t+tc99WHJHj5fVVT4/H50tnfihbVrcNKJp8A0DQ73q6AVO+ko R2KghIDphqU+Ry2FQ91B7Gav6T/gwgsuw9N//D0+fcJJ1vqV+YZqmlBVBRQE6Uwaa9Y8iws/dyHu +Y978KUvXYOClsOvH/s1vnDZF8AMQNfd4muUqmBMR3t7O1577c+4fNUqEImgpaUFibGEYF2JRCJo bmpGNFqLjo5OfOc738Hppy+TPraHtUPNYDCIaCwGmEBzUxOmTp0KxphQofN6vRYxmexCgPT194MZ BpqbmiFB2mcwuTOsdHo2w3rY4ZddELPZC7wWhLG2NgoAmDF3Nj5q34Xbb/8uRkZGhMBzpbCzmicz HR6olKGh+vOVH0WP6n6UfW6VcTdnuDiZ0NmOcI4//njcfPPNHOxCCEKhEMbGRi1VOTap0HtfDt0w MDw8jMWLF2HunLnCWG1I4McZ7zMKukVUrlmtR50zROg6dIM/UukUNm/ZAkUFDj7oYFckZRc9RxMJ dO/uRiKRwIsvvQi/z4+f/PQnuOWWb2PVqlW47PLLMG/uPGx8Z0PZJs6hjwxTp03FmWeeheGhYdx4 040YGR1BpCbC0VeShHw+j8HBQeg6rwu9/KeX0dXVMfdjV4nr6uMIhEOgCkcvKX4vNm/dioyWh1fx CHU4WsUjdezaBd0wMHPmzI/t8p1CVhPeOGbAKBgwiMG9J6Hw+xUoiozu7m5EG+L47a8exSWXrOSk bw6e4bJqsIlJNfLL+rAOD0FMQK+w6J3oJuf/84VrlFBuTp7jygmxK90gFYXrwPr8Xpx/wQr85Y31 ePgXj0ANeBAKBYRAsv0OdiRh7if99Vgshm1bt+G0007jesGWsdr3V5Ikl3xItciEmBU2VAvpZTIT hkV/qgtkFBMh7ksvvoRPf/oEtLS0IJ/XXO+Ry2QQ8gegUi6/8dRTTyGVyuD999/Hze/dCgC46aav YtWqVWhpaXGdg6ZpKGgFLjPi88Mf8ENVvLj9O3dgSvMUXH31lxEM+uH3+WHoBgYGBhCpjcDn8+H5 55/HRRdd9MHHNthPLz1eaps21cwW8hgeGkIsFsPzf3wGa9euxZmnLyuGalWABtzDMjQ2NYKAyyxO 1Fdz588G4ChQlaq/7alvaTADTDNBKQNjnI844A8gl83BGwriwQcfxMKFC8V3kCSp2CMkFSPb6oiG kp9ZifGUho6m5G6+mhX+ltjhufgtgWmYop9Z+nmlPWXJMSpHHOmKphUgKxR1kTpc9LmL8PAvHkEg 4MPIyKggJJc+obHY0ZERgACnnnoqIpGopSJXLNpVa1GVAj2cy0y83p7rZQzMppCBBMPUxdjg7u5e /PWv7+BnP/sJClrB5UIkSUImk0EkEsG7776LX/ziF+jvG8TVX/oXRCIRzJ0zFwsWLMDChYcjl8tU pHSVqWxxX8tQiYzR0WH4fD5cddVViMfjuPjii+HxeKAbOoZHhtHV2YUjjzwSGzduxAdbt+4f4MSl l1+Gf/u3f0NdfRyGbsAfrcFZy5dj7UsvY/GiRZzOgzFOasUYUqkUstksTNPEli1bYJoMoVDIkjQ0 q+Y3iiIjFqvDtOnTsWvHTqiKCplIFcPSaox85cRf7raHoqqQiIRAIIjf/eZxXHPNtTj00EMwNDQs dGn2tGgqhssVGPNJFYN0/oJJ5S8QyB7rexXzuOL3oKwy9tnZn7W9okT4e/DX8BBct/qNBx18IM7/ 3Ln4zaOr0Ta9CalUVvSF+RSVncuarthhT7lrtWOwfwif/ezZCAaDyGbTIJDAiFtFXYJbtMv+DiYz i6+xr7dIjQwhUO28jobBwKxoxePxYPv2nVBVGXPmHIB0OitoSYPBMABgZGQEjzzyCL761a/C4/Hg ySd/j4MOPgjTp/EIUdPz0PQ8aAU2D0mSICsyiCTBMAqQJILa2jrx/HnnnY/NmzfjjjvuwMGHHIzx 8XEUtAKGhoYwf/58rF374v4Zrzvx0yeikM0iUlODXC4HmcqgPi9OOunT+MkD92NXxy4YhoHt27dj dHQUNmF4IpHAyDCngZQphaHrrhyttPqpqCri8TgOOvDAiXujzJx0FbW86m0IiBm/QcNcgUymvLy/ L+yAJXm1zdxgmKa1kIwJ/3aih8jVdd310DT3QzcM66GLqZxSj+VkWrCPcDiEFSvOtzZMZcJC2f5B OgGHH344ampqRMjP74e7nVWxhmGxYhi6AV3jolqFQgFaLo9CLo9CNgctl0c+nxd1jFwuB0NnyGZy 6OnuxTvvbMJRRx6DmnAt6qJxDA0NIRQKYWhoCM899xyuvvpqfPOb34TX68WTTz6J5cuXC2PdE4ag 9HnJSm0KWs6KJExccuklkCQJO3fuhMfjgaEbGBwcBJX5EPx+8bDNrS3XfuHKK+55+tln0dTchA+3 bMGMefMAw8C1116LU048CcccdTSWLl2KwcFBxGIxZDIZdHZ2oqenF6bBICt8iqa4M9mK5VTA1WTK ccGLlyzBU08+CVmmLs/kJNwiDBWrp/sADIGuG1BkBZolOF2t6FUNhTTZjWLfgAbShD1OkWOW6OPY z4nQ2A71XUTdQNBXg1mzZ+CYxUdg/atvIhqPWNfVimSswfZqVejJgiUEz7EBHHTwQYjURkAJgWbl kAIdJEllaYFdC+AFJEO0vSQTnCHRKjwyZkAzrPac9X7JVBo1NRGMj2ewY8d2/ObXjyMWi2F4eBTb tm1DPp+1NJ5+hWeeeQaUUlx33XVYuXIl5s2bZ907Haapi/zefU9oVWNmzAClKgqFtFUh91aEag4N DyEej++bwT7/8kumM88KBAPo6e3BggUL8PMHHoBP9cAbCKJj1y4EfD4ccMAB+Otf38S6l/+ENWvW YMmSJZg2bRqy2Szee+89oWJNCYFu6O6WjNXzoyYRNywWreMeVpJAqVwmL2n3XG2kLmETx2SlLSBJ klxh08jwCAxDh0QkaJoGmcmc4bc1AAAgAElEQVTuto1hVDWcaqB0F8RvH9FEpdNE5Tu7XZm2BKLt hUP4Z/JCTqWc32246dw4GhoacMGFF2L9q2/ChAEJdD8CJ0wu32Nd+3i8jmu1MhNEpjDNvOtaitll uxDl2JgplZFOZ9xhOOM5vkQ4dUwqk3Ftjpl0BqFgCNlMBrt3cxGs4eFhrFq1CgcddBCeefZp5LIF +P1+LFq0CDfddBMOOeQQTJ061WqDcZFn2XrYM7mTPfr6evDBB1xrZ968eXjoFw/BNE3MnDkT7e3t PJ/VdAwODiJSG9mzwW7btu2eTZs2XbPmhefx9ttv45QTPs0vkKpwnledQfF70Tq1DQcecig+3LGd h09URqGg4aOPPoLf40VjYyN27tyJt956y11ljschUYLh4RHMnDlTGIskWUpmEgGTmKuIMu+AA3Dj TTfhrn/7d8SbG1EoaFAUWeCH7VzMabj2dErpAHppIcZu9yQSCUChKGgFF4OgMEJbZMmsUmRCddwx b8JzD0go5bmXlYPt62GUQA5L6XAERtng19Se2xQ5rSWRYZZsgIQwKLIHc2bPhewF58mSCUxGANOE ZHK2KdPcN/UDk5mQKP+7xPAYpk5rxaxZs+BRVB7eW6TmQvHBtL8vc11fw6lNa3l7ZukDGY4KvW4U 9WcLWgGx+kYMj4xANxnW/+V1gR3v7+9Hf38/6qJxzJ49G6tWrcIxxxyD5uZmUYcBAFnmG5+mF6v2 rj6xdWecm5zkmAbr6enB8cd/2nVNliw5Fh2dHUiNp0Akro1U31A/sYfdsGGD+cwzz+DCCy/kkEBd h6oqOPKYo4VnyGQzSKfSyOZyVs+ozwXqtuUd00YG+WwOqoUwMhz8QZzQmnM7yY4B6mLjv7yAFI/H cekllwAA7rrrTjRNmSIG5RXnzKLDY5ilE+Ck3MNKEi825fN5RKO12LVtB2bPns1Z5fN5EJOWG+Ek 2joThcs2lxLT981YywSeWdFgiUXbWRquOo3SNA0RxUgSgVkiccGYBFmmaGxswrGLFmPjxg37NWe1 WzVC3a2pGaqqckFnZghKHzG6ZtqbuDvlYBLExieuOTOFcJf9Wl3TUdAKwmC7urowfdo0bG/fiTff fLNsc+3t7cX37voezjzrTPh8PtGeyWQy0DQNlEpQlMlEHETQxshUBmR+X+bPn4+N72wAJRR+vx// cc9/4Ec//D9oaWlGtC4qcNVDQ0OYOXNmZYN98sknzXvuuQebNm3C7NmzkclkkLeQJsNDQ3xUqZB3 tQ/y+TwK6Qx84bAo5TkXrAFDULQ4B9O9Xi/ATN5K8XiRzWRdO36lCW2vx4vpM2bgS1/6ElqntuGa f7lagB4GBgY+1gIikmSxUhQQiIRx4IEHIhAIghkMum5MqudamtdW6g2Xvn5/zZk62zTMMITRVnt/ 4og0uCG7X1coFOD1etHY1IhFi47F22+/bb37/qs4OcP5OXPnwOfnAxiSJIlCn65rIpChxJpmcuCs TTusNh2REzMhMeZqCRmMS4/Y/1JZxQtrX8BvHn8c27dvR9hav/brvV4vQuGQmPEmhIgioSRJ0HTN KhhVq1fYc5pEtHVUVYWiKkKO5NBDFgLgBG2f//znce+9/0cQ6Hs8HvgDfnR3d+Oz53y23GDvvfde 86mnnkJ3dzfq6+sxNjaG7u5ujKdTCASDyKTTot3AGLPYzTlsjVoy9sXWAhfNlSSrDG8YQijXPuot qb6CVuAUYI7QtxrLIQHgUz1om9KCiz53EWpro7jrrjuxacNGBGtrPtbiSaVT8PsD2N3VhTM+8xkE g0GoEieF5oZH99qLVsplq+nKfNxDchRlbKOVJOIKlSv2Z0sob5w5NmMMMqVobGrEJ300NzVDVVRr c6fCUO2wmJhwTVAZNk5bctcwTNO05CXLCdGdyK/bbrkFGzduxGhyDH6/vyyCymaz+OpXv4pTTjkF LS0tUBQF4Zog4vE4ampqUGutN0kyXWuWiuiGukJiKlPohg5F4wLT4XAIicQIIpEoZEXGyPAITMaF ptOZtOA3Hh0ZK/ewjzzyiPnUU09ZAOgxjI2NQdM06Dovj4+PJcFgQlYUi3qD7xg85LJCWwssDWaC KLLQOJFkiykxk4asKNALBUydNh3MNKF4Pdj07rs45+yzXTejrHdIJE59qusCRBEN1+CC81Zg8aJF eOGFF3Dl5av4aynBrFmzMGJNRthl/NpIxJq15F99aGhILGhJkpBJp9FU34BCpBb/vOoKtDRPQSqT gVHQIDuG6iVIFtjfKDPI0pvuXjBMLBanYeythy3NxUuLToRQGGIDNFzX1QlCsb93scJJSpBZBLpu ghAFBy04GMnRNGbPa0AymbJCegbdMKBZCB5FUSBJEgoFLlnBQ0DqCs9dnp0weBSv1XAeh6J4IEkU BaMAzWDQNeYI6wHd1JEezwgPZ6vMFdFMRegks/SAnJthOpWCbhiQKMHPH3oIG9/ZAEaAcDjoum/2 t1e9Huzq7MC9993Lq8u6W13+0E/Nx4wZ03HwwYdgxowZmDKlCV6vF4FgCD6vTxiuySSeCuoAVHBd 4gD/zEgkikRiBFu2bMEZy86A16eiu7tbpAbJZBLnnnsOFi9efIYw2CeeeMJ84okn0NnZiUwmg2Qy iawFK1QUhVNEyrIwGE3TuTSCVJoHWpTfEh/QlQnhu7TBQdc+n48Psvv86O/vQy6Txdf+19dx/vkX cGynYyEXCwhM7FS6prk+T2cMEpEwtaUVX7j0C1iyZAlWr16Nxx59FFve49L04UgNGhsa+CI2dBEV ABCaoh6PB1SWsTufx0cffYT//a1v4fjjTwAzGNKZtJC4LG0hOUm/yvua5R62rCixn5j0WRUPKs7B YTC8oGcVSQy4Cl+lf08kyaI9oWhobITio9j+QTt8QS8UWYE/EICiqgiHw5ApRf/AAGSZwuf1QlYU Dri3VQNMbtzMYEWkl2FheXXdkTcz4SjsYqHNnWyClekAubztHgwWAOqidbj/Zw/i0UcfQygSKodt MlbGWEktTHVdU9RVG3ln4/t4Z+P7+N0Tz4jXzpjZjKOPXoS58+YiHIqgrq4OU5pbURutRSadgcF4 n9g0TeTzeWSyGaxZswYP//JhIQBm/xuuC4PKFMuXL8e0aTOelewC0x133IGOjg4OeLcuomEYiMVi SCQS6O/vFzxNROY3LxKJYMhqyzhVwmxML7UoOnh1jucMsVgMnV1dCPj9OGbRIlx6ySU4Y9kyzqRo cLaIyg114tqdhYeQ3JxFFBJSmQwSiVG8+uqfsX79a3jqqafQ1dEJfzAIw9CLIZEjx9PzBeGZV69+ AmeccTpkRcHQ0FAZcmoiz2ovzEqhsBMMUa1vui89zFL4G/egxOXJSj2qrX1qF6cENlekJMx1valF ofPDH/4n3nzzLYyOjuK1V15DRUkGxxEIh6DIsgBd2EYsvrPBRFFvcHAQV111Fb72ta8J3qO+3T0l 4awB3Y7iSuoFzOFhhTB4SdEJJsG6detww9e+jubGeqRzWRfwwjStyAmlFX6rXSNZZHwSgyLLCPj8 UFUVhPBrOzAwCJM5mgamBK3EKzsPj0dBPq/B61MFJ5mqqvB6vVAVFYFAAAcfcjAe/uWvJIH2uuGG G8ynn34aHo8H2WyWT2hQLtyzZcsWNDY2YsmSJViwYAEMcDjhq6+8goG+fjQ0NVoVO7NsQdoGZN94 3TAwMjiEMz6zHJ///OdxyimnQLbCU2aaUFXVms80XLlGJbZCWXgMNxUKYwaoLINCwvDoKEyTIZlM oqe3F50dHejo7BT/mqaJgN+P+vp6TJ02DfF4HEuXLsWcmbOgWdXb4ZHhMmO1z9HZR7U3gNLflXpe OyQubSs5w9K9LdRUymFLQ1DqGm8kZRtgafoBiQlpT2INsBNC4fP5kMlkoOs6+vv7oSgyhoaG0dPT g5GRYYwlxjA8MoLdu3sxMjyM119/HalUCmyCgl1pFfvWW2/F7Fmz0drWiimNTcXWDWMCSrqvBvve e+/ji1+6GtFoHXxeLwZGhlwGaxjWZg7TdW7MNERVnef8VlW7oYET4mfGoRUYJAJ4PBQe1QdZURGr q0c6lUZiLIl0Ko1CQYfHoyAcDgtmFoMZyOVyyOfzkKkMr9fLDVZVURutxQ//84dYuPBwbrDt7e2n /+u//usz3d3d2LFjB3RdRzgcxujoKCiluP3227Fw4UIceeSRYmY0mUxi586d6Ovrww/vvRcvvPAC DMv71sTqEAoFYWg6B3IDyGWy8AeDOPW0U/HZcz6LBQsWYMGCBTxcdmw9Eji+VcDMLNpIJylXqVcl lI9dUSpXRA8580UnbNF+H0WReR5EJNHHtXOHbCbrYuljzIIA2gPkjtDXcAyVV6sSFyuVrKxnuCfU 0p6qzBN51L3xuKUHlWXIFpO9JBHU1UbAOEMVBzcIY2ECcuoMU3v6+5DL5ZDNZJDL5ZBMJrmB9/Zg ZHgYWp6DEtrb27Fhwwa0t7e7Pn/x4sWYNWsWDjvsMMyaNQuKQq0cMQCf14egn6ODtm3fjlgsVuRV tlQLChY6jVJOOn/aaachFKkBkbjAsiyrKNhpknX/FVW1BJolERnafXdIdgRpgBkAlQBFlREI+CxO sLw1wgcYjG+UhBDIlLN3UJkLZdn6t12d3ahviEFVVCSTSfgDfoTDYQT8fCh+1apVOPXU08WNkdat W2fecsstSCaT6O3thcfjgdfrxY4dO/Czn/0MZ511FmSZW70t5kMJFRBCAyZef/11vPbnP+NPf/oT nn9uDc8T6uOYMWMGDj7oIBx++BFYunQpYrE6RCK1LkJnA2aVVojbYCdqjRDrfCbCcdrFCUKIC/Rk WHorum5YZXcK3TDKjNUOdzkWlxV3dQvmVhoOVwuJnRtHNRjh3hWf2B49aunzznDYWUEmhJRtBIqs iGsrSRLCNUGLfpZfTzpJvSL7Pts5qV0LSSbGEAqFkEql0N/fj1wuh61bt+L111/H1q1b8fLLL5dh jefNnYejjjoKc+fNxSEHHYhYLAZd0yzxauIy2JqaGmiFAj7c9iFuue02dHR2oC5aB4/Hg3QmDUgy JzVQVZ6D9/cXWziUihy86NkNV/9aEusVcPoMPkesgBBZGKwN2uCpAU8TbO3YYCCIWCyGrq4uROui OPnkk7Fq1Sp86tDDXBdX+vGPf2x+//vf57wyqRQURUEoFMI777yD9evX47DDDhPSFjaHLwBOFqVr ULycJ0eRFUFGlUmnoag8JieUwFdBWq9cic7co8GaFQbInUbqrBiWhV0lRRl7nIpZDXkbrmeTgFUy VvscKp1T6Wv2pmq8f9o5ZK88KnUo2Tur5JU8t8fjEXUDKlNxnSRJArFyXRsUQKxNwP5uOrOmVCwF BztUtWsb1Y6CloOuadi69QO0t7fj3U3vYlf7Tjz66G95f9THPZSeL4DKMubMno1oNIoDDzrIWk/F DSuRSODXv/k1spk8iEzhDwSgFQrIZ3OQPRxRZQosNRAMh1EXrYMsU6RSKWi6Dl3LVzRcMHch0YIn wOMDvB6fVfWWQKkibMbeCBVFwfDwMAgliMfjaG5qxhH/dAROO/U0nH76sooLWfr6179u3nfffYhE IiCEhw0tLS3YuHEjrrzySvzoRz8qm9JwepjRZAKxaB3nKjIYcrksQoGg2EXtHTWTz0F2SG9UM1g7 /LWNqFJOWw1aWKltIDkWkDN8dVVBnYPmVoWyNGd1GmelotP/BIN15tlFj0ahyDJkRRFGK97DMZ4n SeU9ZkM3oBsMVPEg4PeLew8AmsEXr82gmcvlLK9ErXyZW4/Np6UbGpjBMDg4iI7ODmzZsgVdXV14 75138cxzawEAkbAfqVRG4ATsYQIAWHj4p3DYYUdg6rRpmDN7Ntra2uDxeBAIBjE0OIjOri4MDAxg 83vvYfPmzXhrwwZouTyCNWEosgLVQwVDBWO6QF5JYCAS4VVuiQml9rq6OoSCNVBklavJy4pog1KL pkhVVcyZOwezZ8/GlClTAABHHXnMhOGKtHz5cnP9+vVQrN5qNpvFwMAAbrrpJoyMjGD37t048sgj sWjRIkQiEXzq0E/BsFoC9gCAc0GUebQSfCmp4mmduattVDZ5mTPsdBZ3nDlgqXdwFlfsEJFVmJVl jLnbRJrG+3T2aFdJzur0stUKSnsyVKdRTzQgsC9oIWkSOaxdGZYcf+MsPFXcBE3D8Vq7GOXuJRPq SD0sFgzT+tkEgawoHJbn3v1d3lySTEumhRZbhOJ7MMd6shxBKo3xVAojw8MYHx9HYtxN1NY2dQYi tRFEa2sBSsskU6SSlIxCQjI1js6uLgwODuLtt9/Grx97DBvefAsgEqZOnYZslnvdbDYD2cpL+dCI hvFkHhddfB6+8pWv4IjDF0mdnTsvtr7dTtM0a5nJZlFC35w6dfrr+7QxX3DBBeazzz6LYDAo9HDu u+8+fO5znxNiVjt37sTGjRuxfft23HHHHW4Pt58N1vamzrDTWdBxGkYlLzaRp53MoRuGAMbbEg+l G4azSuyEBJZWyUuLTaUeeU/wxY/jYcty2EmGxNWuE3UgeYhEXBhvYg1bVBpllIgCShUQWa3yvqWA Dwi8LYemMoEkkogkQu4iZp2nW1o+jUw2C4/X7/58KvOCJHEbeiWDdQqFafbssMGQzWbw1zffxItr 1+IHd3+fbwTTpqKntxd+jwpCHdVkS0b1xRdfxJLFJ+x3Xlg5GuUA47q6OvT19WHx4sU4+eSTkUql EAwG4fF4ELNEmDnz4MTsgJ/kUcmLTVRFZQanC52IxaL4hAUO1w0xMWQyE5rGJmWwldpQe2Ww0Kt8 kcldX6lkmKFosHTSBitTClpCkjcJyIbYlqWSTceUCMfsmgAMsyILQ2lLmlCAMmopyTlaTJIEDi2n Lq5k2d5IiAm/zwciEw6ycLgH0xJ0YhUchvPj88yAZPI1rlAFCuWbQcDnw+mnnIpTTzkVp512Gm69 7TZsfu89HHLwwdjd3YVMJgVCZF5Fj9Zh165OvLj25U/EBuRgkEs1yLIs+GlzuZwAQdutDqe8ANtH b2CCS9pXIuwq9aZ2McjOGUsrspPB8laqMlcDGthFBBswIoomenlu6gqJS8LciiFxBQMujxCq9Skn abAl4SmzxZtgAyKYKyRmVq7oRDjpkoSQPbxRBTbJe5TMQcXCn6eSWT5haJqQwF/PJL1iJbxsGpeZ MGVefeX5rHWdiGkZKv89IQRMZ6I/SikBlSVIJcUscy+uoUwoKCgAk0MjNR2aZiAS4tdE0wo47rjj 8NzRx+Caa6/Bzx94ENOnTwXAkEnnQCjfoGKxKFavXo3u3V1yy5Q2fb8a7KxZs8Qc6MKFC/Haa68h kUigpaXFpS3jzPmIgy/IrOKxip6jlFKzMpa2tMBUKSSeqFpcCTzvNPriIiyZknEWjxzqBcXvgTIj cxprqRFOFO66sKolhloV/L+n3FYwRLiZGOx2g/28aTqet8/RsF9SvIejI6NQVQVer0/AHZ0XQlwr iXCuXys0NiqCOQwwEDCL2cKwwulqPXXbc5qmCUL5Z1GxbfESl2QhjSjlpHmy7A7jBcSRUAAGV2YH g2mnbCWnKJX9PwdNUCuU9nhM6KYOmASUypAJgSor+NrXvoZd7e1Y9/KfcOBB87E7vxvBQBDj4+M4 cMGBeOONN/DGG29o2M8azPLhhx+OhQsXIpFIYGxsDLIsY8OGDZgzZ45reqGSV6q0Q5ZPoTiwniWA AwCOwWPmQLOY1giU21BLc9k9wfoqghkqYG0ZM8T72RXg4iKiFReW2LhZkSJFeBXn89w9iPBxf3L4 7rdUw4ltNnTk81wUTJFl4REJ3HIakml5azDhBcvSDZPAtGZXSwtWznzZ9vDEQWdDmBXNMScJPXHh falsgkrOVh7jhmruo3QnTNdgfLUEgACYNXMWrr/+eqx7+U9C6rSntwd2xAoAnR2d+z8kXrhwoXTz zTebt912G2KxGKZOnYrvfOc7OPXUU9HQ0OBS5K5kkGwv9o/S0LISztb2ePvLw5p7yGFtD8fggJ7B qoI7qGkkSfqEzYbtczjs+nv7PCXs88Ityo4YZQYreq6mrSJfNNhyD0ssD2tHN0SAVzjrglVRBrF4 Vks+nzJuuJSAMWpBZomoRPMag+YCh0gg1iWwTEsqetnq15RN8DOp0H7keONjFy/GqisuwwP3/wy1 0Rqh/ZPP50EoEVKZ+/MgAHDiiSeCUopYLAZN0zA0NISbbroJ2WwWmUwGmUwG2WwW2WxWMM0VCgXx 0DUNuqaVMfcZuu5i9OPs6obrITRlxGuM4kSHnYMKT+kGKgiO2WqaNtbfV3/oE7L583CS/Y2NtOR5 iU0iHJ7g+T28hpnuOc5ywzUsniL+4LpF1vUzite+qGtUcn2ZXmR2tHSONF0THQnbePm5MPfDoifV dcOa3tGsvFLjQxyOCMrpfYv1AHsTM0qyWueDlW3glRQWnE4grxXAmIHacA0+//nPQ1U5iGM0MQpC CAqFAgghiEaj+9/DAkBLS8u8U0455YNXX30VgUAAjY2N+OUvf4na2lrcdNNN8Pl8HMqVTqNQKLg8 lqIoAgXl7I+68h2rmFVK5+m8qKal11LsvTJR3CpWZpl43aSqqMzkfLkOZncn7w4z9YoUqE7ssoi8 TVLmqYklHyERWSx4Wwd0T8ZJLIMqIrDkknYUsbREpcpAd8a4MTiiDw444NhV+9NisXo+wpXOQdd1 yLIMSvmsrBi0loreza4uC+A/IVavWnbn8dBBGNevlQgBNVhVCUgCBgZiKSg4rwgD0w33RiEV7xOD wccsiQlCJZ6XUwOmJMFkHHFlC3FTyabH4cZLLUoWoQFENFdKJDKYYt7CgRCmdQ7WupJlGYOD/TAM E7W1tfB4PNAYw0D/AGKxGGbNmlVMJ3ROWavpGjLpHGRF/mQMdtq0aR+uWbMG69atgyRJ6O/vxwEH HIB77rkHnZ2dOOecc7B06VIxYWCDuPP5PGRZFnQWdlXZMAxXU17cgAo5JTP1qkZZWrxhjtnTokcw y3KivfFulf7G2ZNUiGyFckU+Jxvgblq8wmKG0jQFKsy54G1AgHOzIVIJ8L5k1lb8axIX2KOY7/HX JsYSVVMDSZKQTqUFCwMABAKBkiKg6bquTvC+vRFTC2ThPC/J4reSwInZGHgF2EZqT0Qv68xldU0r 6QG7NzZGCIhVfGJMAmESKCUWj5MEifEheXtmlxCZU7BaBH6i2MRKUwfm2PCLAA0q+sv29Sjghq/e gD8+/SwOO+wwfPnLX8acOXMwc+ZMKIqC119/Xdyb6dOnY3h4GJRQ+PweIUG5Pw/XVb377rvNG264 AW1tbRgf5/SWH3zwAYLBIBYuXIgrr7wSBxxwAGpqahAOh2EYhvC4zGL2dyKQJmOwIoc0nXmqe3EL T22wCmgmWvZZzpCu+HklORjlXsweMyOUFzl4scoouZluDztRUaIagMP+fFvCUSLl9KKccV93fM8i M3z5hqYLT2y/nzM/JBLhPEIStSZEuOGNWBNUzqoqDzEN10ZDS9oj5RuidY7WuBmxQkin4HKxWltk r3QWmDi8UZrQYPnfcIPiOSwE0wSlBLDwyzZ/NZ+OUazvQV2D6IaAmZolBmtPfZmQCbEMn997RfZg 586d2LBhIz744APcfPPNCAaDuOqqq1BbW4vv3H4rspk8Zs6cjvHUOAqFAqZPm46xsTGsXr1ajMV9 IgYLALfffrv5jW98A62trbysTiny+TxGRkZAKd9VTz75ZCxfvhxtbW1oaGiAz+cT0zzOuL003HSG xKUGW1QQN1zM/U4jqPycJIyzUvGkksE6d9jEaEL8LIkWU9FgBweHJzTYoaEh12eWhsTieevziq/n PxcNiP88NjYmzoEZHAvL/58/b2NO7feb0uz+uXlKsytdCIcj8Hl98Ps5CCYejztQRQSKooi0RtM0 xOPxkqox5+FyU8gWz5fYhlthRlWSJEgWFPHjGGzx/hCBeLKBHxLlhmqnJ0XD5WOTtoctbRna644S WfSxCaWQiTWsQFXAJPD5OCNFNpsFpRQDAwP4y1/+gssuuwzj4+OYOXM6RkZH4PP6IEkSkskkDjjg ABjMwIa3NkqfqIcFgK6uLvmJJ57QrrvuOvh8PrS2tmLXrl0Ih8NCPmF8fBwDAwPwer0wDAPz5s3D okWLMG/ePDQ2Nlb0dsWQrvI4nX309fW5fu4f6Hf9bLMiFsNlN/61u7vb9fqiKDGzvx8y2Qyy2TQo pQ5PwgR1R6EA2ISNVEwAEVeR67+8PVPK2krciCcicY5ze++xSQlki/1BURQYhoG5c+eivr4ebW1t qK+vx8yZM13fraWlBaqqIhQKIRAIQJat+U4rd2R6QQhlG5a31uyCI3PXDdw9ap77OudwJ1YPYJZh 8tyV45YJiKxaEqawhgQMyJTC6+UD5DAJ3/gszDiV+ecZVv7PGK+E81yeOXDVMmASRCKxsjMZHBzE +vXrcdZZZ2HGjGkYGBhAOpOB1+vB/PnzMdA/gG9961u44op/3v/QxNJftLW16QCk5557zrzrrrvw 8ssvIxaLoaWlBakUl3UPhUJobW0FYwwjIyPYtm0bPvzwQxfHTim8zd49pQqiUC4UjQtR5AYvTHot VwGxA5ySg8pURAROr0kkgqbmJhiiEEJEyE0kuYrnLtdIrSQobTCLX1e3KDaZXtFjlRfxyYTIJnEj HYYkCk8M0HU+TUKIRZJXKAi+JNM0sWnTJosDmFU9/7q6OsyaNQutrVNQX1+PUCiEaF0UoVAIDbE6 lzE2WhFXOByG39IFdn0jSSqBeboRYmEH0qrUYHnNQOeD8xawQmeuyLu4jgyGXDaHQkGHaUpQZAWE Eqiqj/Npp8eh6zo8Hg8Xqmaa8NCMSCBEEsXKglZAIa8LRGA8HkdHR4dYQ5yrzItgkAMnmpubcdxx xz37N9in3cemTZvMdRqqshoAAAaiSURBVOvW4ZprrhG/mzFjhqgW21/AZlAkLnxqhVxOqmCwzK0g 7gyXXDmfoCkhLrQMcyCRKuXIrhzRdMIe9aotkiJmmhsskQgoVVy5mV09nazBQnK2P4rtIuKgZClP iCcwWGKWeVhxjazrZxgmDN0Gzcuu87Hvl1005LxERKC97PPRChqSyaQYWys9fB7qwlBrBhCrq8HM mTPR3NTkqqICQGtrKyTiDGGJmB4ikjShwVKZCjpdSgFKZahen1X5loQ6nD15pipe5PMafD4fgsEg fD4f0qmU1ZLSRO7OTAaZFvHUfO5XAQEFpfzaeDw85O3s7MTq1avx9a9/HYqiIBaPIp1Kg8qUz38T gq985SufiHfdo8Hax+bNm7W1a9fKb775Jl555RURdtbW1orWjqqqUBRFhLRlC0pCxeqhk5HfVjt3 4ludBlzE37KqIXFZCC6qsJPrgzKTlVS53R42HA7vk4e1PysSiZTkZXu6BWSCKMI510vKqsbco9vF KLmsCmxXuUujEsMw+AZjzQYTicDrU+H3+5HJZATzpdfrRSGbcxgsw+joKDLZLAqaWfGbVOGGL0ZT k8w0bI9qEr62CJEgERMylRGPN6C1tRXxeByBQMgxnxqCP+BHKBRCXbSOp3mRGtd1bGpucm2YAX8I vX292LljF3p7e7Fy5Ur4fD7U19dbXRJOeOAP+NFQ34Czzz4bX//6Nz4xlM1ev/HmzZu1119/Xf7w ww/x05/+VHjAYDBoce34ROGEy3I4h8F1MIaK4H3bcwoDoUTkj7qhI5fLQdO0stnXUoO1DcL2uM4F 6myhVCpw2J/LDOZuo4AW50kJEWrxO3fuRDqdFiyT9rnRkllTp2d2FnVsQi+n4dfX109otPa1LT3/ ItGdjtR4CsPDwxhPpeD1ck/j9Xrh8XhE7ukskrnO0WYFFDADQ3A2cbYFN3cThbvlQ62IixIicNmy oiDg9wvlv7GxMciKAq/Xi0w6jXA4DEmSMDo6CkVVJ7UOqUVnk9MK1v3l12I0kQSs1rtpTpxO8bAa qKuLYErzFNRGa9HW1oaamhrE43FEaqLY9N4mbNy4ERve2ggA8Pv9aGhogKZp6O7uRmNTPcLhMFpa WnDsomOxcuXK/5w1a861fzcGW1qgeu3Pr2m9fb2ClO399zdj9+7dSCZTILRY9NjrE7PWaDAQQG20 Fo0NjaitrRVQydIqsb3g7AVpG42zH+ry2KQ8d6xosI5xLjuqaGjgagX9/f2YMWMGotEopkyZgrq6 uqoevhSLXDwvQCKSLknSKJHIDkLIzpJltcP6vlHDMI4wDOMIxphcrZ/s8/n+M5fLXTM+Po5cLof3 3tuCQqEg0GmlRb3h4WGk02mMjY0hm82ip7cbqVQKmXTOMkCuf+Tx8EJVPB4XVWvDMMQAgRCrssLq dCaDxOgYVFUGlWUoMv9XVVX09Q6gtbUZI6Oj0DWNbySKIpBuTix3dWPjxSeqKo7NqxIJPXXhlJlp 5/QEVKbI5XLIpDMYH08XNwNZQqQmAp/Ph+7uHng8CmpqauHz+TAwMIBAIABJkpDL5dDayg192RnL PlHPul8MtvRob28/vb+/95me3h4kEiOQqWxxI7GSYo0DScTs+U0qvJlT3SsQDCJaG0VDQwMOPPDg T/yC/P96bN++/dvpdPrm3t7dSKVTSCRGkEqloGs6RhPD6O/vRyIxgt///hleN7CcsEx5/myrfaiK yjmF/X6LzZLHrpquc2wyIdjdMwCZALFYFJFIBJqui43YWV12pSplVXHiiqJKo5FqU0FCMcDqv9sV ZGdqIDt4lA2mWUVIbvhjY2PweDyor69HfX09amvDOP/8C7By5aV/k7X5DwP4xzGpY3fvrqOz2fQr 3R/1yBxLbMDQDQz09RdngZmE9vZ2bP3gAySTSUvdnKcz6XSaU8dmszjttNOwefNmpDMZ1NTUYMeO HRgZTsAwAbkK0pSVMfFLov9qg3K44VniWJbNx2LRsq6EbbCKzNkwDIPzAjPGoKq8TaTruoB/UpnC 6/FDURRks1lIkoQZM2bgoIMOworzz8XS4074m9nRPwz2H8cnerz33rsmwHm3nQMcZsk8cNn0lVS5 0LZu3TpLIsWChBooAm5Ms0y9MJlMYnx8HCPDIxgfH8fGje+WvWd5bQPCYO3D6/UKRtFly5bhs5/9 LE455ZS/uf38w2D/cfyPP7q6Ouam0qnN2UxWfv/9913PdXZ+JAyWMS75aGv9SJJktXQ8wmAXL16M I4444r/Mbv4feHyFMoP8pRgAAAAASUVORK5CYII= "
     preserveAspectRatio="none"
     height="39.173733"
     width="52.004242" />
  <text
     xml:space="preserve"
     style="font-style:normal;font-variant:normal;font-weight:normal;font-stretch:normal;font-size:40px;line-height:1.25;font-family:'Droid Sans Fallback';-inkscape-font-specification:'Droid Sans Fallback';letter-spacing:0px;word-spacing:0px;fill:#000000;fill-opacity:1;stroke:none"
     x="10.629237"
     y="192.79237"
     id="text819"><tspan
       sodipodi:role="line"
       id="tspan817"
       x="10.629237"
       y="192.79237"
       style="font-style:normal;font-variant:normal;font-weight:normal;font-stretch:normal;font-size:37.33333206px;font-family:FreeSerif;-inkscape-font-specification:FreeSerif">Bit Harvest</tspan><tspan
       sodipodi:role="line"
       x="10.629237"
       y="242.79237"
       id="tspan821"
       style="font-style:normal;font-variant:normal;font-weight:normal;font-stretch:normal;font-size:37.33333206px;font-family:FreeSerif;-inkscape-font-specification:FreeSerif">Studio.</tspan></text>
  <text
     xml:space="preserve"
     style="font-style:normal;font-weight:normal;font-size:40px;line-height:1.25;font-family:sans-serif;letter-spacing:0px;word-spacing:0px;fill:#000000;fill-opacity:1;stroke:none"
     x="128.28391"
     y="192.42586"
     id="text825"><tspan
       sodipodi:role="line"
       id="tspan823"
       x="128.28391"
       y="227.81648"></tspan></text>
</svg>
